<svg width="405" height="322" viewBox="0 0 405 322" fill="none" xmlns="http://www.w3.org/2000/svg">
<mask id="mask0" mask-type="alpha" maskUnits="userSpaceOnUse" x="0" y="-211" width="533" height="533">
<circle cx="266.5" cy="55.5" r="266.5" fill="#C41A1A"/>
</mask>
<g mask="url(#mask0)">
<circle cx="6.70437" cy="10.2448" r="3.3522" fill="#C41A1A"/>
<circle cx="6.70437" cy="43.7672" r="3.3522" fill="#C41A1A"/>
<circle cx="6.70437" cy="77.2892" r="3.3522" fill="#C41A1A"/>
<circle cx="6.70437" cy="110.811" r="3.3522" fill="#C41A1A"/>
<circle cx="6.70437" cy="144.333" r="3.3522" fill="#C41A1A"/>
<circle cx="6.70437" cy="177.855" r="3.3522" fill="#C41A1A"/>
<circle cx="6.70437" cy="211.377" r="3.3522" fill="#C41A1A"/>
<circle cx="6.70437" cy="244.899" r="3.3522" fill="#C41A1A"/>
<circle cx="6.70437" cy="278.421" r="3.3522" fill="#C41A1A"/>
<circle cx="6.70437" cy="311.943" r="3.3522" fill="#C41A1A"/>
<circle cx="23.4654" cy="10.2448" r="3.3522" fill="#C41A1A"/>
<circle cx="23.4654" cy="43.7672" r="3.3522" fill="#C41A1A"/>
<circle cx="23.4654" cy="77.2892" r="3.3522" fill="#C41A1A"/>
<circle cx="23.4654" cy="110.811" r="3.3522" fill="#C41A1A"/>
<circle cx="23.4654" cy="144.333" r="3.3522" fill="#C41A1A"/>
<circle cx="23.4654" cy="177.855" r="3.3522" fill="#C41A1A"/>
<circle cx="23.4654" cy="211.377" r="3.3522" fill="#C41A1A"/>
<circle cx="23.4654" cy="244.899" r="3.3522" fill="#C41A1A"/>
<circle cx="23.4654" cy="278.421" r="3.3522" fill="#C41A1A"/>
<circle cx="23.4654" cy="311.943" r="3.3522" fill="#C41A1A"/>
<circle cx="40.2264" cy="10.2448" r="3.3522" fill="#C41A1A"/>
<circle cx="40.2264" cy="43.7672" r="3.3522" fill="#C41A1A"/>
<circle cx="40.2264" cy="77.2892" r="3.3522" fill="#C41A1A"/>
<circle cx="40.2264" cy="110.811" r="3.3522" fill="#C41A1A"/>
<circle cx="40.2264" cy="144.333" r="3.3522" fill="#C41A1A"/>
<circle cx="40.2264" cy="177.855" r="3.3522" fill="#C41A1A"/>
<circle cx="40.2264" cy="211.377" r="3.3522" fill="#C41A1A"/>
<circle cx="40.2264" cy="244.899" r="3.3522" fill="#C41A1A"/>
<circle cx="40.2264" cy="278.421" r="3.3522" fill="#C41A1A"/>
<circle cx="40.2264" cy="311.943" r="3.3522" fill="#C41A1A"/>
<circle cx="56.9874" cy="10.2448" r="3.3522" fill="#C41A1A"/>
<circle cx="56.9874" cy="43.7672" r="3.3522" fill="#C41A1A"/>
<circle cx="56.9874" cy="77.2892" r="3.3522" fill="#C41A1A"/>
<circle cx="56.9874" cy="110.811" r="3.3522" fill="#C41A1A"/>
<circle cx="56.9874" cy="144.333" r="3.3522" fill="#C41A1A"/>
<circle cx="56.9874" cy="177.855" r="3.3522" fill="#C41A1A"/>
<circle cx="56.9874" cy="211.377" r="3.3522" fill="#C41A1A"/>
<circle cx="56.9874" cy="244.899" r="3.3522" fill="#C41A1A"/>
<circle cx="56.9874" cy="278.421" r="3.3522" fill="#C41A1A"/>
<circle cx="56.9874" cy="311.943" r="3.3522" fill="#C41A1A"/>
<circle cx="73.7484" cy="10.2448" r="3.3522" fill="#C41A1A"/>
<circle cx="73.7484" cy="43.7672" r="3.3522" fill="#C41A1A"/>
<circle cx="73.7484" cy="77.2892" r="3.3522" fill="#C41A1A"/>
<circle cx="73.7484" cy="110.811" r="3.3522" fill="#C41A1A"/>
<circle cx="73.7484" cy="144.333" r="3.3522" fill="#C41A1A"/>
<circle cx="73.7484" cy="177.855" r="3.3522" fill="#C41A1A"/>
<circle cx="73.7484" cy="211.377" r="3.3522" fill="#C41A1A"/>
<circle cx="73.7484" cy="244.899" r="3.3522" fill="#C41A1A"/>
<circle cx="73.7484" cy="278.421" r="3.3522" fill="#C41A1A"/>
<circle cx="73.7484" cy="311.943" r="3.3522" fill="#C41A1A"/>
<circle cx="90.5094" cy="10.2448" r="3.3522" fill="#C41A1A"/>
<circle cx="90.5094" cy="43.7672" r="3.3522" fill="#C41A1A"/>
<circle cx="90.5094" cy="77.2892" r="3.3522" fill="#C41A1A"/>
<circle cx="90.5094" cy="110.811" r="3.3522" fill="#C41A1A"/>
<circle cx="90.5094" cy="144.333" r="3.3522" fill="#C41A1A"/>
<circle cx="90.5094" cy="177.855" r="3.3522" fill="#C41A1A"/>
<circle cx="90.5094" cy="211.377" r="3.3522" fill="#C41A1A"/>
<circle cx="90.5094" cy="244.899" r="3.3522" fill="#C41A1A"/>
<circle cx="90.5094" cy="278.421" r="3.3522" fill="#C41A1A"/>
<circle cx="90.5094" cy="311.943" r="3.3522" fill="#C41A1A"/>
<circle cx="107.27" cy="10.2448" r="3.3522" fill="#C41A1A"/>
<circle cx="107.27" cy="43.7672" r="3.3522" fill="#C41A1A"/>
<circle cx="107.27" cy="77.2892" r="3.3522" fill="#C41A1A"/>
<circle cx="107.27" cy="110.811" r="3.3522" fill="#C41A1A"/>
<circle cx="107.27" cy="144.333" r="3.3522" fill="#C41A1A"/>
<circle cx="107.27" cy="177.855" r="3.3522" fill="#C41A1A"/>
<circle cx="107.27" cy="211.377" r="3.3522" fill="#C41A1A"/>
<circle cx="107.27" cy="244.899" r="3.3522" fill="#C41A1A"/>
<circle cx="107.27" cy="278.421" r="3.3522" fill="#C41A1A"/>
<circle cx="107.27" cy="311.943" r="3.3522" fill="#C41A1A"/>
<circle cx="124.031" cy="10.2448" r="3.3522" fill="#C41A1A"/>
<circle cx="124.031" cy="43.7672" r="3.3522" fill="#C41A1A"/>
<circle cx="124.031" cy="77.2892" r="3.3522" fill="#C41A1A"/>
<circle cx="124.031" cy="110.811" r="3.3522" fill="#C41A1A"/>
<circle cx="124.031" cy="144.333" r="3.3522" fill="#C41A1A"/>
<circle cx="124.031" cy="177.855" r="3.3522" fill="#C41A1A"/>
<circle cx="124.031" cy="211.377" r="3.3522" fill="#C41A1A"/>
<circle cx="124.031" cy="244.899" r="3.3522" fill="#C41A1A"/>
<circle cx="124.031" cy="278.421" r="3.3522" fill="#C41A1A"/>
<circle cx="124.031" cy="311.943" r="3.3522" fill="#C41A1A"/>
<circle cx="140.792" cy="10.2448" r="3.3522" fill="#C41A1A"/>
<circle cx="140.792" cy="43.7672" r="3.3522" fill="#C41A1A"/>
<circle cx="140.792" cy="77.2892" r="3.3522" fill="#C41A1A"/>
<circle cx="140.792" cy="110.811" r="3.3522" fill="#C41A1A"/>
<circle cx="140.792" cy="144.333" r="3.3522" fill="#C41A1A"/>
<circle cx="140.792" cy="177.855" r="3.3522" fill="#C41A1A"/>
<circle cx="140.792" cy="211.377" r="3.3522" fill="#C41A1A"/>
<circle cx="140.792" cy="244.899" r="3.3522" fill="#C41A1A"/>
<circle cx="140.792" cy="278.421" r="3.3522" fill="#C41A1A"/>
<circle cx="140.792" cy="311.943" r="3.3522" fill="#C41A1A"/>
<circle cx="157.553" cy="10.2448" r="3.3522" fill="#C41A1A"/>
<circle cx="157.553" cy="43.7672" r="3.3522" fill="#C41A1A"/>
<circle cx="157.553" cy="77.2892" r="3.3522" fill="#C41A1A"/>
<circle cx="157.553" cy="110.811" r="3.3522" fill="#C41A1A"/>
<circle cx="157.553" cy="144.333" r="3.3522" fill="#C41A1A"/>
<circle cx="157.553" cy="177.855" r="3.3522" fill="#C41A1A"/>
<circle cx="157.553" cy="211.377" r="3.3522" fill="#C41A1A"/>
<circle cx="157.553" cy="244.899" r="3.3522" fill="#C41A1A"/>
<circle cx="157.553" cy="278.421" r="3.3522" fill="#C41A1A"/>
<circle cx="157.553" cy="311.943" r="3.3522" fill="#C41A1A"/>
<circle cx="174.314" cy="10.2448" r="3.3522" fill="#C41A1A"/>
<circle cx="174.314" cy="43.7672" r="3.3522" fill="#C41A1A"/>
<circle cx="174.314" cy="77.2892" r="3.3522" fill="#C41A1A"/>
<circle cx="174.314" cy="110.811" r="3.3522" fill="#C41A1A"/>
<circle cx="174.314" cy="144.333" r="3.3522" fill="#C41A1A"/>
<circle cx="174.314" cy="177.855" r="3.3522" fill="#C41A1A"/>
<circle cx="174.314" cy="211.377" r="3.3522" fill="#C41A1A"/>
<circle cx="174.314" cy="244.899" r="3.3522" fill="#C41A1A"/>
<circle cx="174.314" cy="278.421" r="3.3522" fill="#C41A1A"/>
<circle cx="174.314" cy="311.943" r="3.3522" fill="#C41A1A"/>
<circle cx="191.075" cy="10.2448" r="3.3522" fill="#C41A1A"/>
<circle cx="191.075" cy="43.7672" r="3.3522" fill="#C41A1A"/>
<circle cx="191.075" cy="77.2892" r="3.3522" fill="#C41A1A"/>
<circle cx="191.075" cy="110.811" r="3.3522" fill="#C41A1A"/>
<circle cx="191.075" cy="144.333" r="3.3522" fill="#C41A1A"/>
<circle cx="191.075" cy="177.855" r="3.3522" fill="#C41A1A"/>
<circle cx="191.075" cy="211.377" r="3.3522" fill="#C41A1A"/>
<circle cx="191.075" cy="244.899" r="3.3522" fill="#C41A1A"/>
<circle cx="191.075" cy="278.421" r="3.3522" fill="#C41A1A"/>
<circle cx="191.075" cy="311.943" r="3.3522" fill="#C41A1A"/>
<circle cx="207.836" cy="10.2448" r="3.3522" fill="#C41A1A"/>
<circle cx="207.836" cy="43.7672" r="3.3522" fill="#C41A1A"/>
<circle cx="207.836" cy="77.2892" r="3.3522" fill="#C41A1A"/>
<circle cx="207.836" cy="110.811" r="3.3522" fill="#C41A1A"/>
<circle cx="207.836" cy="144.333" r="3.3522" fill="#C41A1A"/>
<circle cx="207.836" cy="177.855" r="3.3522" fill="#C41A1A"/>
<circle cx="207.836" cy="211.377" r="3.3522" fill="#C41A1A"/>
<circle cx="207.836" cy="244.899" r="3.3522" fill="#C41A1A"/>
<circle cx="207.836" cy="278.421" r="3.3522" fill="#C41A1A"/>
<circle cx="207.836" cy="311.943" r="3.3522" fill="#C41A1A"/>
<circle cx="224.597" cy="10.2448" r="3.3522" fill="#C41A1A"/>
<circle cx="224.597" cy="43.7672" r="3.3522" fill="#C41A1A"/>
<circle cx="224.597" cy="77.2892" r="3.3522" fill="#C41A1A"/>
<circle cx="224.597" cy="110.811" r="3.3522" fill="#C41A1A"/>
<circle cx="224.597" cy="144.333" r="3.3522" fill="#C41A1A"/>
<circle cx="224.597" cy="177.855" r="3.3522" fill="#C41A1A"/>
<circle cx="224.597" cy="211.377" r="3.3522" fill="#C41A1A"/>
<circle cx="224.597" cy="244.899" r="3.3522" fill="#C41A1A"/>
<circle cx="224.597" cy="278.421" r="3.3522" fill="#C41A1A"/>
<circle cx="224.597" cy="311.943" r="3.3522" fill="#C41A1A"/>
<circle cx="241.358" cy="10.2448" r="3.3522" fill="#C41A1A"/>
<circle cx="241.358" cy="43.7672" r="3.3522" fill="#C41A1A"/>
<circle cx="241.358" cy="77.2892" r="3.3522" fill="#C41A1A"/>
<circle cx="241.358" cy="110.811" r="3.3522" fill="#C41A1A"/>
<circle cx="241.358" cy="144.333" r="3.3522" fill="#C41A1A"/>
<circle cx="241.358" cy="177.855" r="3.3522" fill="#C41A1A"/>
<circle cx="241.358" cy="211.377" r="3.3522" fill="#C41A1A"/>
<circle cx="241.358" cy="244.899" r="3.3522" fill="#C41A1A"/>
<circle cx="241.358" cy="278.421" r="3.3522" fill="#C41A1A"/>
<circle cx="241.358" cy="311.943" r="3.3522" fill="#C41A1A"/>
<circle cx="258.119" cy="10.2448" r="3.3522" fill="#C41A1A"/>
<circle cx="258.119" cy="43.7672" r="3.3522" fill="#C41A1A"/>
<circle cx="258.119" cy="77.2892" r="3.3522" fill="#C41A1A"/>
<circle cx="258.119" cy="110.811" r="3.3522" fill="#C41A1A"/>
<circle cx="258.119" cy="144.333" r="3.3522" fill="#C41A1A"/>
<circle cx="258.119" cy="177.855" r="3.3522" fill="#C41A1A"/>
<circle cx="258.119" cy="211.377" r="3.3522" fill="#C41A1A"/>
<circle cx="258.119" cy="244.899" r="3.3522" fill="#C41A1A"/>
<circle cx="258.119" cy="278.421" r="3.3522" fill="#C41A1A"/>
<circle cx="258.119" cy="311.943" r="3.3522" fill="#C41A1A"/>
<circle cx="274.881" cy="10.2448" r="3.3522" fill="#C41A1A"/>
<circle cx="274.881" cy="43.7672" r="3.3522" fill="#C41A1A"/>
<circle cx="274.881" cy="77.2892" r="3.3522" fill="#C41A1A"/>
<circle cx="274.881" cy="110.811" r="3.3522" fill="#C41A1A"/>
<circle cx="274.881" cy="144.333" r="3.3522" fill="#C41A1A"/>
<circle cx="274.881" cy="177.855" r="3.3522" fill="#C41A1A"/>
<circle cx="274.881" cy="211.377" r="3.3522" fill="#C41A1A"/>
<circle cx="274.881" cy="244.899" r="3.3522" fill="#C41A1A"/>
<circle cx="274.881" cy="278.421" r="3.3522" fill="#C41A1A"/>
<circle cx="274.881" cy="311.943" r="3.3522" fill="#C41A1A"/>
<circle cx="291.642" cy="10.2448" r="3.3522" fill="#C41A1A"/>
<circle cx="291.642" cy="43.7672" r="3.3522" fill="#C41A1A"/>
<circle cx="291.642" cy="77.2892" r="3.3522" fill="#C41A1A"/>
<circle cx="291.642" cy="110.811" r="3.3522" fill="#C41A1A"/>
<circle cx="291.642" cy="144.333" r="3.3522" fill="#C41A1A"/>
<circle cx="291.642" cy="177.855" r="3.3522" fill="#C41A1A"/>
<circle cx="291.642" cy="211.377" r="3.3522" fill="#C41A1A"/>
<circle cx="291.642" cy="244.899" r="3.3522" fill="#C41A1A"/>
<circle cx="291.642" cy="278.421" r="3.3522" fill="#C41A1A"/>
<circle cx="291.642" cy="311.943" r="3.3522" fill="#C41A1A"/>
<circle cx="308.402" cy="10.2448" r="3.3522" fill="#C41A1A"/>
<circle cx="308.402" cy="43.7672" r="3.3522" fill="#C41A1A"/>
<circle cx="308.402" cy="77.2892" r="3.3522" fill="#C41A1A"/>
<circle cx="308.402" cy="110.811" r="3.3522" fill="#C41A1A"/>
<circle cx="308.402" cy="144.333" r="3.3522" fill="#C41A1A"/>
<circle cx="308.402" cy="177.855" r="3.3522" fill="#C41A1A"/>
<circle cx="308.402" cy="211.377" r="3.3522" fill="#C41A1A"/>
<circle cx="308.402" cy="244.899" r="3.3522" fill="#C41A1A"/>
<circle cx="308.402" cy="278.421" r="3.3522" fill="#C41A1A"/>
<circle cx="308.402" cy="311.943" r="3.3522" fill="#C41A1A"/>
<circle cx="325.163" cy="10.2448" r="3.3522" fill="#C41A1A"/>
<circle cx="325.163" cy="43.7672" r="3.3522" fill="#C41A1A"/>
<circle cx="325.163" cy="77.2892" r="3.3522" fill="#C41A1A"/>
<circle cx="325.163" cy="110.811" r="3.3522" fill="#C41A1A"/>
<circle cx="325.163" cy="144.333" r="3.3522" fill="#C41A1A"/>
<circle cx="325.163" cy="177.855" r="3.3522" fill="#C41A1A"/>
<circle cx="325.163" cy="211.377" r="3.3522" fill="#C41A1A"/>
<circle cx="325.163" cy="244.899" r="3.3522" fill="#C41A1A"/>
<circle cx="325.163" cy="278.421" r="3.3522" fill="#C41A1A"/>
<circle cx="325.163" cy="311.943" r="3.3522" fill="#C41A1A"/>
<circle cx="341.924" cy="10.2448" r="3.3522" fill="#C41A1A"/>
<circle cx="341.924" cy="43.7672" r="3.3522" fill="#C41A1A"/>
<circle cx="341.924" cy="77.2892" r="3.3522" fill="#C41A1A"/>
<circle cx="341.924" cy="110.811" r="3.3522" fill="#C41A1A"/>
<circle cx="341.924" cy="144.333" r="3.3522" fill="#C41A1A"/>
<circle cx="341.924" cy="177.855" r="3.3522" fill="#C41A1A"/>
<circle cx="341.924" cy="211.377" r="3.3522" fill="#C41A1A"/>
<circle cx="341.924" cy="244.899" r="3.3522" fill="#C41A1A"/>
<circle cx="341.924" cy="278.421" r="3.3522" fill="#C41A1A"/>
<circle cx="341.924" cy="311.943" r="3.3522" fill="#C41A1A"/>
<circle cx="358.685" cy="10.2448" r="3.3522" fill="#C41A1A"/>
<circle cx="358.685" cy="43.7672" r="3.3522" fill="#C41A1A"/>
<circle cx="358.685" cy="77.2892" r="3.3522" fill="#C41A1A"/>
<circle cx="358.685" cy="110.811" r="3.3522" fill="#C41A1A"/>
<circle cx="358.685" cy="144.333" r="3.3522" fill="#C41A1A"/>
<circle cx="358.685" cy="177.855" r="3.3522" fill="#C41A1A"/>
<circle cx="358.685" cy="211.377" r="3.3522" fill="#C41A1A"/>
<circle cx="358.685" cy="244.899" r="3.3522" fill="#C41A1A"/>
<circle cx="358.685" cy="278.421" r="3.3522" fill="#C41A1A"/>
<circle cx="358.685" cy="311.943" r="3.3522" fill="#C41A1A"/>
<circle cx="375.447" cy="10.2448" r="3.3522" fill="#C41A1A"/>
<circle cx="375.447" cy="43.7672" r="3.3522" fill="#C41A1A"/>
<circle cx="375.447" cy="77.2892" r="3.3522" fill="#C41A1A"/>
<circle cx="375.447" cy="110.811" r="3.3522" fill="#C41A1A"/>
<circle cx="375.447" cy="144.333" r="3.3522" fill="#C41A1A"/>
<circle cx="375.447" cy="177.855" r="3.3522" fill="#C41A1A"/>
<circle cx="375.447" cy="211.377" r="3.3522" fill="#C41A1A"/>
<circle cx="375.447" cy="244.899" r="3.3522" fill="#C41A1A"/>
<circle cx="375.447" cy="278.421" r="3.3522" fill="#C41A1A"/>
<circle cx="375.447" cy="311.943" r="3.3522" fill="#C41A1A"/>
<circle cx="392.208" cy="10.2448" r="3.3522" fill="#C41A1A"/>
<circle cx="392.208" cy="43.7672" r="3.3522" fill="#C41A1A"/>
<circle cx="392.208" cy="77.2892" r="3.3522" fill="#C41A1A"/>
<circle cx="392.208" cy="110.811" r="3.3522" fill="#C41A1A"/>
<circle cx="392.208" cy="144.333" r="3.3522" fill="#C41A1A"/>
<circle cx="392.208" cy="177.855" r="3.3522" fill="#C41A1A"/>
<circle cx="392.208" cy="211.377" r="3.3522" fill="#C41A1A"/>
<circle cx="392.208" cy="244.899" r="3.3522" fill="#C41A1A"/>
<circle cx="392.208" cy="278.421" r="3.3522" fill="#C41A1A"/>
<circle cx="392.208" cy="311.943" r="3.3522" fill="#C41A1A"/>
<circle cx="11.7327" cy="27.006" r="3.3522" fill="#C41A1A"/>
<circle cx="11.7327" cy="60.528" r="3.3522" fill="#C41A1A"/>
<circle cx="11.7327" cy="94.05" r="3.3522" fill="#C41A1A"/>
<circle cx="11.7327" cy="127.572" r="3.3522" fill="#C41A1A"/>
<circle cx="11.7327" cy="161.094" r="3.3522" fill="#C41A1A"/>
<circle cx="11.7327" cy="194.616" r="3.3522" fill="#C41A1A"/>
<circle cx="11.7327" cy="228.138" r="3.3522" fill="#C41A1A"/>
<circle cx="11.7327" cy="261.66" r="3.3522" fill="#C41A1A"/>
<circle cx="11.7327" cy="295.182" r="3.3522" fill="#C41A1A"/>
<circle cx="28.4937" cy="27.006" r="3.3522" fill="#C41A1A"/>
<circle cx="28.4937" cy="60.528" r="3.3522" fill="#C41A1A"/>
<circle cx="28.4937" cy="94.05" r="3.3522" fill="#C41A1A"/>
<circle cx="28.4937" cy="127.572" r="3.3522" fill="#C41A1A"/>
<circle cx="28.4937" cy="161.094" r="3.3522" fill="#C41A1A"/>
<circle cx="28.4937" cy="194.616" r="3.3522" fill="#C41A1A"/>
<circle cx="28.4937" cy="228.138" r="3.3522" fill="#C41A1A"/>
<circle cx="28.4937" cy="261.66" r="3.3522" fill="#C41A1A"/>
<circle cx="28.4937" cy="295.182" r="3.3522" fill="#C41A1A"/>
<circle cx="45.2547" cy="27.006" r="3.3522" fill="#C41A1A"/>
<circle cx="45.2547" cy="60.528" r="3.3522" fill="#C41A1A"/>
<circle cx="45.2547" cy="94.05" r="3.3522" fill="#C41A1A"/>
<circle cx="45.2547" cy="127.572" r="3.3522" fill="#C41A1A"/>
<circle cx="45.2547" cy="161.094" r="3.3522" fill="#C41A1A"/>
<circle cx="45.2547" cy="194.616" r="3.3522" fill="#C41A1A"/>
<circle cx="45.2547" cy="228.138" r="3.3522" fill="#C41A1A"/>
<circle cx="45.2547" cy="261.66" r="3.3522" fill="#C41A1A"/>
<circle cx="45.2547" cy="295.182" r="3.3522" fill="#C41A1A"/>
<circle cx="62.0157" cy="27.006" r="3.3522" fill="#C41A1A"/>
<circle cx="62.0157" cy="60.528" r="3.3522" fill="#C41A1A"/>
<circle cx="62.0157" cy="94.05" r="3.3522" fill="#C41A1A"/>
<circle cx="62.0157" cy="127.572" r="3.3522" fill="#C41A1A"/>
<circle cx="62.0157" cy="161.094" r="3.3522" fill="#C41A1A"/>
<circle cx="62.0157" cy="194.616" r="3.3522" fill="#C41A1A"/>
<circle cx="62.0157" cy="228.138" r="3.3522" fill="#C41A1A"/>
<circle cx="62.0157" cy="261.66" r="3.3522" fill="#C41A1A"/>
<circle cx="62.0157" cy="295.182" r="3.3522" fill="#C41A1A"/>
<circle cx="78.7767" cy="27.006" r="3.3522" fill="#C41A1A"/>
<circle cx="78.7767" cy="60.528" r="3.3522" fill="#C41A1A"/>
<circle cx="78.7767" cy="94.05" r="3.3522" fill="#C41A1A"/>
<circle cx="78.7767" cy="127.572" r="3.3522" fill="#C41A1A"/>
<circle cx="78.7767" cy="161.094" r="3.3522" fill="#C41A1A"/>
<circle cx="78.7767" cy="194.616" r="3.3522" fill="#C41A1A"/>
<circle cx="78.7767" cy="228.138" r="3.3522" fill="#C41A1A"/>
<circle cx="78.7767" cy="261.66" r="3.3522" fill="#C41A1A"/>
<circle cx="78.7767" cy="295.182" r="3.3522" fill="#C41A1A"/>
<circle cx="95.5377" cy="27.006" r="3.3522" fill="#C41A1A"/>
<circle cx="95.5377" cy="60.528" r="3.3522" fill="#C41A1A"/>
<circle cx="95.5377" cy="94.05" r="3.3522" fill="#C41A1A"/>
<circle cx="95.5377" cy="127.572" r="3.3522" fill="#C41A1A"/>
<circle cx="95.5377" cy="161.094" r="3.3522" fill="#C41A1A"/>
<circle cx="95.5377" cy="194.616" r="3.3522" fill="#C41A1A"/>
<circle cx="95.5377" cy="228.138" r="3.3522" fill="#C41A1A"/>
<circle cx="95.5377" cy="261.66" r="3.3522" fill="#C41A1A"/>
<circle cx="95.5377" cy="295.182" r="3.3522" fill="#C41A1A"/>
<circle cx="112.299" cy="27.006" r="3.3522" fill="#C41A1A"/>
<circle cx="112.299" cy="60.528" r="3.3522" fill="#C41A1A"/>
<circle cx="112.299" cy="94.05" r="3.3522" fill="#C41A1A"/>
<circle cx="112.299" cy="127.572" r="3.3522" fill="#C41A1A"/>
<circle cx="112.299" cy="161.094" r="3.3522" fill="#C41A1A"/>
<circle cx="112.299" cy="194.616" r="3.3522" fill="#C41A1A"/>
<circle cx="112.299" cy="228.138" r="3.3522" fill="#C41A1A"/>
<circle cx="112.299" cy="261.66" r="3.3522" fill="#C41A1A"/>
<circle cx="112.299" cy="295.182" r="3.3522" fill="#C41A1A"/>
<circle cx="129.06" cy="27.006" r="3.3522" fill="#C41A1A"/>
<circle cx="129.06" cy="60.528" r="3.3522" fill="#C41A1A"/>
<circle cx="129.06" cy="94.05" r="3.3522" fill="#C41A1A"/>
<circle cx="129.06" cy="127.572" r="3.3522" fill="#C41A1A"/>
<circle cx="129.06" cy="161.094" r="3.3522" fill="#C41A1A"/>
<circle cx="129.06" cy="194.616" r="3.3522" fill="#C41A1A"/>
<circle cx="129.06" cy="228.138" r="3.3522" fill="#C41A1A"/>
<circle cx="129.06" cy="261.66" r="3.3522" fill="#C41A1A"/>
<circle cx="129.06" cy="295.182" r="3.3522" fill="#C41A1A"/>
<circle cx="145.821" cy="27.006" r="3.3522" fill="#C41A1A"/>
<circle cx="145.821" cy="60.528" r="3.3522" fill="#C41A1A"/>
<circle cx="145.821" cy="94.05" r="3.3522" fill="#C41A1A"/>
<circle cx="145.821" cy="127.572" r="3.3522" fill="#C41A1A"/>
<circle cx="145.821" cy="161.094" r="3.3522" fill="#C41A1A"/>
<circle cx="145.821" cy="194.616" r="3.3522" fill="#C41A1A"/>
<circle cx="145.821" cy="228.138" r="3.3522" fill="#C41A1A"/>
<circle cx="145.821" cy="261.66" r="3.3522" fill="#C41A1A"/>
<circle cx="145.821" cy="295.182" r="3.3522" fill="#C41A1A"/>
<circle cx="162.582" cy="27.006" r="3.3522" fill="#C41A1A"/>
<circle cx="162.582" cy="60.528" r="3.3522" fill="#C41A1A"/>
<circle cx="162.582" cy="94.05" r="3.3522" fill="#C41A1A"/>
<circle cx="162.582" cy="127.572" r="3.3522" fill="#C41A1A"/>
<circle cx="162.582" cy="161.094" r="3.3522" fill="#C41A1A"/>
<circle cx="162.582" cy="194.616" r="3.3522" fill="#C41A1A"/>
<circle cx="162.582" cy="228.138" r="3.3522" fill="#C41A1A"/>
<circle cx="162.582" cy="261.66" r="3.3522" fill="#C41A1A"/>
<circle cx="162.582" cy="295.182" r="3.3522" fill="#C41A1A"/>
<circle cx="179.343" cy="27.006" r="3.3522" fill="#C41A1A"/>
<circle cx="179.343" cy="60.528" r="3.3522" fill="#C41A1A"/>
<circle cx="179.343" cy="94.05" r="3.3522" fill="#C41A1A"/>
<circle cx="179.343" cy="127.572" r="3.3522" fill="#C41A1A"/>
<circle cx="179.343" cy="161.094" r="3.3522" fill="#C41A1A"/>
<circle cx="179.343" cy="194.616" r="3.3522" fill="#C41A1A"/>
<circle cx="179.343" cy="228.138" r="3.3522" fill="#C41A1A"/>
<circle cx="179.343" cy="261.66" r="3.3522" fill="#C41A1A"/>
<circle cx="179.343" cy="295.182" r="3.3522" fill="#C41A1A"/>
<circle cx="196.104" cy="27.006" r="3.3522" fill="#C41A1A"/>
<circle cx="196.104" cy="60.528" r="3.3522" fill="#C41A1A"/>
<circle cx="196.104" cy="94.05" r="3.3522" fill="#C41A1A"/>
<circle cx="196.104" cy="127.572" r="3.3522" fill="#C41A1A"/>
<circle cx="196.104" cy="161.094" r="3.3522" fill="#C41A1A"/>
<circle cx="196.104" cy="194.616" r="3.3522" fill="#C41A1A"/>
<circle cx="196.104" cy="228.138" r="3.3522" fill="#C41A1A"/>
<circle cx="196.104" cy="261.66" r="3.3522" fill="#C41A1A"/>
<circle cx="196.104" cy="295.182" r="3.3522" fill="#C41A1A"/>
<circle cx="212.865" cy="27.006" r="3.3522" fill="#C41A1A"/>
<circle cx="212.865" cy="60.528" r="3.3522" fill="#C41A1A"/>
<circle cx="212.865" cy="94.05" r="3.3522" fill="#C41A1A"/>
<circle cx="212.865" cy="127.572" r="3.3522" fill="#C41A1A"/>
<circle cx="212.865" cy="161.094" r="3.3522" fill="#C41A1A"/>
<circle cx="212.865" cy="194.616" r="3.3522" fill="#C41A1A"/>
<circle cx="212.865" cy="228.138" r="3.3522" fill="#C41A1A"/>
<circle cx="212.865" cy="261.66" r="3.3522" fill="#C41A1A"/>
<circle cx="212.865" cy="295.182" r="3.3522" fill="#C41A1A"/>
<circle cx="229.626" cy="27.006" r="3.3522" fill="#C41A1A"/>
<circle cx="229.626" cy="60.528" r="3.3522" fill="#C41A1A"/>
<circle cx="229.626" cy="94.05" r="3.3522" fill="#C41A1A"/>
<circle cx="229.626" cy="127.572" r="3.3522" fill="#C41A1A"/>
<circle cx="229.626" cy="161.094" r="3.3522" fill="#C41A1A"/>
<circle cx="229.626" cy="194.616" r="3.3522" fill="#C41A1A"/>
<circle cx="229.626" cy="228.138" r="3.3522" fill="#C41A1A"/>
<circle cx="229.626" cy="261.66" r="3.3522" fill="#C41A1A"/>
<circle cx="229.626" cy="295.182" r="3.3522" fill="#C41A1A"/>
<circle cx="246.387" cy="27.006" r="3.3522" fill="#C41A1A"/>
<circle cx="246.387" cy="60.528" r="3.3522" fill="#C41A1A"/>
<circle cx="246.387" cy="94.05" r="3.3522" fill="#C41A1A"/>
<circle cx="246.387" cy="127.572" r="3.3522" fill="#C41A1A"/>
<circle cx="246.387" cy="161.094" r="3.3522" fill="#C41A1A"/>
<circle cx="246.387" cy="194.616" r="3.3522" fill="#C41A1A"/>
<circle cx="246.387" cy="228.138" r="3.3522" fill="#C41A1A"/>
<circle cx="246.387" cy="261.66" r="3.3522" fill="#C41A1A"/>
<circle cx="246.387" cy="295.182" r="3.3522" fill="#C41A1A"/>
<circle cx="263.148" cy="27.006" r="3.3522" fill="#C41A1A"/>
<circle cx="263.148" cy="60.528" r="3.3522" fill="#C41A1A"/>
<circle cx="263.148" cy="94.05" r="3.3522" fill="#C41A1A"/>
<circle cx="263.148" cy="127.572" r="3.3522" fill="#C41A1A"/>
<circle cx="263.148" cy="161.094" r="3.3522" fill="#C41A1A"/>
<circle cx="263.148" cy="194.616" r="3.3522" fill="#C41A1A"/>
<circle cx="263.148" cy="228.138" r="3.3522" fill="#C41A1A"/>
<circle cx="263.148" cy="261.66" r="3.3522" fill="#C41A1A"/>
<circle cx="263.148" cy="295.182" r="3.3522" fill="#C41A1A"/>
<circle cx="279.909" cy="27.006" r="3.3522" fill="#C41A1A"/>
<circle cx="279.909" cy="60.528" r="3.3522" fill="#C41A1A"/>
<circle cx="279.909" cy="94.05" r="3.3522" fill="#C41A1A"/>
<circle cx="279.909" cy="127.572" r="3.3522" fill="#C41A1A"/>
<circle cx="279.909" cy="161.094" r="3.3522" fill="#C41A1A"/>
<circle cx="279.909" cy="194.616" r="3.3522" fill="#C41A1A"/>
<circle cx="279.909" cy="228.138" r="3.3522" fill="#C41A1A"/>
<circle cx="279.909" cy="261.66" r="3.3522" fill="#C41A1A"/>
<circle cx="279.909" cy="295.182" r="3.3522" fill="#C41A1A"/>
<circle cx="296.67" cy="27.006" r="3.3522" fill="#C41A1A"/>
<circle cx="296.67" cy="60.528" r="3.3522" fill="#C41A1A"/>
<circle cx="296.67" cy="94.05" r="3.3522" fill="#C41A1A"/>
<circle cx="296.67" cy="127.572" r="3.3522" fill="#C41A1A"/>
<circle cx="296.67" cy="161.094" r="3.3522" fill="#C41A1A"/>
<circle cx="296.67" cy="194.616" r="3.3522" fill="#C41A1A"/>
<circle cx="296.67" cy="228.138" r="3.3522" fill="#C41A1A"/>
<circle cx="296.67" cy="261.66" r="3.3522" fill="#C41A1A"/>
<circle cx="296.67" cy="295.182" r="3.3522" fill="#C41A1A"/>
<circle cx="313.431" cy="27.006" r="3.3522" fill="#C41A1A"/>
<circle cx="313.431" cy="60.528" r="3.3522" fill="#C41A1A"/>
<circle cx="313.431" cy="94.05" r="3.3522" fill="#C41A1A"/>
<circle cx="313.431" cy="127.572" r="3.3522" fill="#C41A1A"/>
<circle cx="313.431" cy="161.094" r="3.3522" fill="#C41A1A"/>
<circle cx="313.431" cy="194.616" r="3.3522" fill="#C41A1A"/>
<circle cx="313.431" cy="228.138" r="3.3522" fill="#C41A1A"/>
<circle cx="313.431" cy="261.66" r="3.3522" fill="#C41A1A"/>
<circle cx="313.431" cy="295.182" r="3.3522" fill="#C41A1A"/>
<circle cx="330.192" cy="27.006" r="3.3522" fill="#C41A1A"/>
<circle cx="330.192" cy="60.528" r="3.3522" fill="#C41A1A"/>
<circle cx="330.192" cy="94.05" r="3.3522" fill="#C41A1A"/>
<circle cx="330.192" cy="127.572" r="3.3522" fill="#C41A1A"/>
<circle cx="330.192" cy="161.094" r="3.3522" fill="#C41A1A"/>
<circle cx="330.192" cy="194.616" r="3.3522" fill="#C41A1A"/>
<circle cx="330.192" cy="228.138" r="3.3522" fill="#C41A1A"/>
<circle cx="330.192" cy="261.66" r="3.3522" fill="#C41A1A"/>
<circle cx="330.192" cy="295.182" r="3.3522" fill="#C41A1A"/>
<circle cx="346.953" cy="27.006" r="3.3522" fill="#C41A1A"/>
<circle cx="346.953" cy="60.528" r="3.3522" fill="#C41A1A"/>
<circle cx="346.953" cy="94.05" r="3.3522" fill="#C41A1A"/>
<circle cx="346.953" cy="127.572" r="3.3522" fill="#C41A1A"/>
<circle cx="346.953" cy="161.094" r="3.3522" fill="#C41A1A"/>
<circle cx="346.953" cy="194.616" r="3.3522" fill="#C41A1A"/>
<circle cx="346.953" cy="228.138" r="3.3522" fill="#C41A1A"/>
<circle cx="346.953" cy="261.66" r="3.3522" fill="#C41A1A"/>
<circle cx="346.953" cy="295.182" r="3.3522" fill="#C41A1A"/>
<circle cx="363.714" cy="27.006" r="3.3522" fill="#C41A1A"/>
<circle cx="363.714" cy="60.528" r="3.3522" fill="#C41A1A"/>
<circle cx="363.714" cy="94.05" r="3.3522" fill="#C41A1A"/>
<circle cx="363.714" cy="127.572" r="3.3522" fill="#C41A1A"/>
<circle cx="363.714" cy="161.094" r="3.3522" fill="#C41A1A"/>
<circle cx="363.714" cy="194.616" r="3.3522" fill="#C41A1A"/>
<circle cx="363.714" cy="228.138" r="3.3522" fill="#C41A1A"/>
<circle cx="363.714" cy="261.66" r="3.3522" fill="#C41A1A"/>
<circle cx="363.714" cy="295.182" r="3.3522" fill="#C41A1A"/>
<circle cx="380.475" cy="27.006" r="3.3522" fill="#C41A1A"/>
<circle cx="380.475" cy="60.528" r="3.3522" fill="#C41A1A"/>
<circle cx="380.475" cy="94.05" r="3.3522" fill="#C41A1A"/>
<circle cx="380.475" cy="127.572" r="3.3522" fill="#C41A1A"/>
<circle cx="380.475" cy="161.094" r="3.3522" fill="#C41A1A"/>
<circle cx="380.475" cy="194.616" r="3.3522" fill="#C41A1A"/>
<circle cx="380.475" cy="228.138" r="3.3522" fill="#C41A1A"/>
<circle cx="380.475" cy="261.66" r="3.3522" fill="#C41A1A"/>
<circle cx="380.475" cy="295.182" r="3.3522" fill="#C41A1A"/>
<circle cx="397.236" cy="27.006" r="3.3522" fill="#C41A1A"/>
<circle cx="397.236" cy="60.528" r="3.3522" fill="#C41A1A"/>
<circle cx="397.236" cy="94.05" r="3.3522" fill="#C41A1A"/>
<circle cx="397.236" cy="127.572" r="3.3522" fill="#C41A1A"/>
<circle cx="397.236" cy="161.094" r="3.3522" fill="#C41A1A"/>
<circle cx="397.236" cy="194.616" r="3.3522" fill="#C41A1A"/>
<circle cx="397.236" cy="228.138" r="3.3522" fill="#C41A1A"/>
<circle cx="397.236" cy="261.66" r="3.3522" fill="#C41A1A"/>
<circle cx="397.236" cy="295.182" r="3.3522" fill="#C41A1A"/>
</g>
</svg>
