<svg width="90" height="69" viewBox="0 0 90 69" fill="none" xmlns="http://www.w3.org/2000/svg">
<path fill-rule="evenodd" clip-rule="evenodd" d="M45 0L57.8692 8.80499V3.02915H62.8692V12.2259L73.1154 19.2362V46.0034H90V51.0034H73.1154V68.5291H16.8846V51.0034H0V46.0034H16.8846V19.2362L45 0Z" fill="#5B5B5B"/>
<path fill-rule="evenodd" clip-rule="evenodd" d="M38.5858 29.0293H36.4142L25 40.4435V42.6151L38.5858 29.0293ZM25 45.4435V47.6151L41 31.6151V29.4435L25 45.4435ZM41 34.4435L25 50.4435V52.6151L41 36.6151V34.4435ZM41 39.4435L25 55.4435V57.6151L41 41.6151V39.4435ZM41 44.4435L27.4142 58.0293H29.5858L41 46.6151V44.4435ZM41 49.4435L32.4142 58.0293H34.5858L41 51.6151V49.4435ZM41 54.4435L37.4142 58.0293H39.5858L41 56.6151V54.4435ZM25 37.6151L33.5858 29.0293H31.4142L25 35.4435V37.6151ZM25 32.6151L28.5858 29.0293H26.4142L25 30.4435V32.6151ZM23 60.0293V27.0293H43V60.0293H23Z" fill="#CF3534"/>
<path fill-rule="evenodd" clip-rule="evenodd" d="M62.5858 29.0293H60.4142L49 40.4435V42.6151L62.5858 29.0293ZM49 45.4435V47.6151L65 31.6151V29.4435L49 45.4435ZM65 34.4435L49 50.4435V52.6151L65 36.6151V34.4435ZM65 39.4435L49 55.4435V57.6151L65 41.6151V39.4435ZM65 44.4435L51.4142 58.0293H53.5858L65 46.6151V44.4435ZM65 49.4435L56.4142 58.0293H58.5858L65 51.6151V49.4435ZM65 54.4435L61.4142 58.0293H63.5858L65 56.6151V54.4435ZM49 37.6151L57.5858 29.0293H55.4142L49 35.4435V37.6151ZM49 32.6151L52.5858 29.0293H50.4142L49 30.4435V32.6151ZM47 60.0293V27.0293H67V60.0293H47Z" fill="#CF3534"/>
</svg>
