<svg width="792" height="552" viewBox="0 0 792 552" fill="none" xmlns="http://www.w3.org/2000/svg">
<mask id="mask0" mask-type="alpha" maskUnits="userSpaceOnUse" x="0" y="0" width="792" height="552">
<path fill-rule="evenodd" clip-rule="evenodd" d="M561 462C688.578 462 792 358.578 792 231C792 103.422 688.578 0 561 0C433.422 0 330 103.422 330 231C330 245.816 331.395 260.306 334.06 274.346C301.984 223.657 245.423 190 181 190C81.0365 190 0 271.036 0 371C0 470.964 81.0365 552 181 552C280.964 552 362 470.964 362 371C362 362.255 361.38 353.655 360.181 345.242C399.94 414.981 474.979 462 561 462Z" fill="#C4C4C4"/>
</mask>
<g mask="url(#mask0)">
<circle cx="9.63519" cy="25.8742" r="3.3522" fill="#5B5B5B"/>
<circle cx="9.63519" cy="59.3961" r="3.3522" fill="#5B5B5B"/>
<circle cx="9.63519" cy="92.9181" r="3.3522" fill="#5B5B5B"/>
<circle cx="9.63519" cy="126.44" r="3.3522" fill="#5B5B5B"/>
<circle cx="9.63519" cy="159.962" r="3.3522" fill="#5B5B5B"/>
<circle cx="9.63519" cy="193.484" r="3.3522" fill="#5B5B5B"/>
<circle cx="9.63519" cy="227.006" r="3.3522" fill="#5B5B5B"/>
<circle cx="9.63519" cy="260.528" r="3.3522" fill="#5B5B5B"/>
<circle cx="9.63519" cy="294.05" r="3.3522" fill="#5B5B5B"/>
<circle cx="9.63519" cy="327.572" r="3.3522" fill="#5B5B5B"/>
<circle cx="9.63519" cy="361.094" r="3.3522" fill="#5B5B5B"/>
<circle cx="9.63519" cy="394.616" r="3.3522" fill="#5B5B5B"/>
<circle cx="9.63519" cy="428.138" r="3.3522" fill="#5B5B5B"/>
<circle cx="9.63519" cy="461.66" r="3.3522" fill="#5B5B5B"/>
<circle cx="9.63519" cy="495.182" r="3.3522" fill="#5B5B5B"/>
<circle cx="9.63519" cy="528.704" r="3.3522" fill="#5B5B5B"/>
<circle cx="26.3962" cy="25.8742" r="3.3522" fill="#5B5B5B"/>
<circle cx="26.3962" cy="59.3961" r="3.3522" fill="#5B5B5B"/>
<circle cx="26.3962" cy="92.9181" r="3.3522" fill="#5B5B5B"/>
<circle cx="26.3962" cy="126.44" r="3.3522" fill="#5B5B5B"/>
<circle cx="26.3962" cy="159.962" r="3.3522" fill="#5B5B5B"/>
<circle cx="26.3962" cy="193.484" r="3.3522" fill="#5B5B5B"/>
<circle cx="26.3962" cy="227.006" r="3.3522" fill="#5B5B5B"/>
<circle cx="26.3962" cy="260.528" r="3.3522" fill="#5B5B5B"/>
<circle cx="26.3962" cy="294.05" r="3.3522" fill="#5B5B5B"/>
<circle cx="26.3962" cy="327.572" r="3.3522" fill="#5B5B5B"/>
<circle cx="26.3962" cy="361.094" r="3.3522" fill="#5B5B5B"/>
<circle cx="26.3962" cy="394.616" r="3.3522" fill="#5B5B5B"/>
<circle cx="26.3962" cy="428.138" r="3.3522" fill="#5B5B5B"/>
<circle cx="26.3962" cy="461.66" r="3.3522" fill="#5B5B5B"/>
<circle cx="26.3962" cy="495.182" r="3.3522" fill="#5B5B5B"/>
<circle cx="26.3962" cy="528.704" r="3.3522" fill="#5B5B5B"/>
<circle cx="43.1572" cy="25.8742" r="3.3522" fill="#5B5B5B"/>
<circle cx="43.1572" cy="59.3961" r="3.3522" fill="#5B5B5B"/>
<circle cx="43.1572" cy="92.9181" r="3.3522" fill="#5B5B5B"/>
<circle cx="43.1572" cy="126.44" r="3.3522" fill="#5B5B5B"/>
<circle cx="43.1572" cy="159.962" r="3.3522" fill="#5B5B5B"/>
<circle cx="43.1572" cy="193.484" r="3.3522" fill="#5B5B5B"/>
<circle cx="43.1572" cy="227.006" r="3.3522" fill="#5B5B5B"/>
<circle cx="43.1572" cy="260.528" r="3.3522" fill="#5B5B5B"/>
<circle cx="43.1572" cy="294.05" r="3.3522" fill="#5B5B5B"/>
<circle cx="43.1572" cy="327.572" r="3.3522" fill="#5B5B5B"/>
<circle cx="43.1572" cy="361.094" r="3.3522" fill="#5B5B5B"/>
<circle cx="43.1572" cy="394.616" r="3.3522" fill="#5B5B5B"/>
<circle cx="43.1572" cy="428.138" r="3.3522" fill="#5B5B5B"/>
<circle cx="43.1572" cy="461.66" r="3.3522" fill="#5B5B5B"/>
<circle cx="43.1572" cy="495.182" r="3.3522" fill="#5B5B5B"/>
<circle cx="43.1572" cy="528.704" r="3.3522" fill="#5B5B5B"/>
<circle cx="59.9182" cy="25.8742" r="3.3522" fill="#5B5B5B"/>
<circle cx="59.9182" cy="59.3961" r="3.3522" fill="#5B5B5B"/>
<circle cx="59.9182" cy="92.9181" r="3.3522" fill="#5B5B5B"/>
<circle cx="59.9182" cy="126.44" r="3.3522" fill="#5B5B5B"/>
<circle cx="59.9182" cy="159.962" r="3.3522" fill="#5B5B5B"/>
<circle cx="59.9182" cy="193.484" r="3.3522" fill="#5B5B5B"/>
<circle cx="59.9182" cy="227.006" r="3.3522" fill="#5B5B5B"/>
<circle cx="59.9182" cy="260.528" r="3.3522" fill="#5B5B5B"/>
<circle cx="59.9182" cy="294.05" r="3.3522" fill="#5B5B5B"/>
<circle cx="59.9182" cy="327.572" r="3.3522" fill="#5B5B5B"/>
<circle cx="59.9182" cy="361.094" r="3.3522" fill="#5B5B5B"/>
<circle cx="59.9182" cy="394.616" r="3.3522" fill="#5B5B5B"/>
<circle cx="59.9182" cy="428.138" r="3.3522" fill="#5B5B5B"/>
<circle cx="59.9182" cy="461.66" r="3.3522" fill="#5B5B5B"/>
<circle cx="59.9182" cy="495.182" r="3.3522" fill="#5B5B5B"/>
<circle cx="59.9182" cy="528.704" r="3.3522" fill="#5B5B5B"/>
<circle cx="76.6792" cy="25.8742" r="3.3522" fill="#5B5B5B"/>
<circle cx="76.6792" cy="59.3961" r="3.3522" fill="#5B5B5B"/>
<circle cx="76.6792" cy="92.9181" r="3.3522" fill="#5B5B5B"/>
<circle cx="76.6792" cy="126.44" r="3.3522" fill="#5B5B5B"/>
<circle cx="76.6792" cy="159.962" r="3.3522" fill="#5B5B5B"/>
<circle cx="76.6792" cy="193.484" r="3.3522" fill="#5B5B5B"/>
<circle cx="76.6792" cy="227.006" r="3.3522" fill="#5B5B5B"/>
<circle cx="76.6792" cy="260.528" r="3.3522" fill="#5B5B5B"/>
<circle cx="76.6792" cy="294.05" r="3.3522" fill="#5B5B5B"/>
<circle cx="76.6792" cy="327.572" r="3.3522" fill="#5B5B5B"/>
<circle cx="76.6792" cy="361.094" r="3.3522" fill="#5B5B5B"/>
<circle cx="76.6792" cy="394.616" r="3.3522" fill="#5B5B5B"/>
<circle cx="76.6792" cy="428.138" r="3.3522" fill="#5B5B5B"/>
<circle cx="76.6792" cy="461.66" r="3.3522" fill="#5B5B5B"/>
<circle cx="76.6792" cy="495.182" r="3.3522" fill="#5B5B5B"/>
<circle cx="76.6792" cy="528.704" r="3.3522" fill="#5B5B5B"/>
<circle cx="93.4402" cy="25.8742" r="3.3522" fill="#5B5B5B"/>
<circle cx="93.4402" cy="59.3961" r="3.3522" fill="#5B5B5B"/>
<circle cx="93.4402" cy="92.9181" r="3.3522" fill="#5B5B5B"/>
<circle cx="93.4402" cy="126.44" r="3.3522" fill="#5B5B5B"/>
<circle cx="93.4402" cy="159.962" r="3.3522" fill="#5B5B5B"/>
<circle cx="93.4402" cy="193.484" r="3.3522" fill="#5B5B5B"/>
<circle cx="93.4402" cy="227.006" r="3.3522" fill="#5B5B5B"/>
<circle cx="93.4402" cy="260.528" r="3.3522" fill="#5B5B5B"/>
<circle cx="93.4402" cy="294.05" r="3.3522" fill="#5B5B5B"/>
<circle cx="93.4402" cy="327.572" r="3.3522" fill="#5B5B5B"/>
<circle cx="93.4402" cy="361.094" r="3.3522" fill="#5B5B5B"/>
<circle cx="93.4402" cy="394.616" r="3.3522" fill="#5B5B5B"/>
<circle cx="93.4402" cy="428.138" r="3.3522" fill="#5B5B5B"/>
<circle cx="93.4402" cy="461.66" r="3.3522" fill="#5B5B5B"/>
<circle cx="93.4402" cy="495.182" r="3.3522" fill="#5B5B5B"/>
<circle cx="93.4402" cy="528.704" r="3.3522" fill="#5B5B5B"/>
<circle cx="110.201" cy="25.8742" r="3.3522" fill="#5B5B5B"/>
<circle cx="110.201" cy="59.3961" r="3.3522" fill="#5B5B5B"/>
<circle cx="110.201" cy="92.9181" r="3.3522" fill="#5B5B5B"/>
<circle cx="110.201" cy="126.44" r="3.3522" fill="#5B5B5B"/>
<circle cx="110.201" cy="159.962" r="3.3522" fill="#5B5B5B"/>
<circle cx="110.201" cy="193.484" r="3.3522" fill="#5B5B5B"/>
<circle cx="110.201" cy="227.006" r="3.3522" fill="#5B5B5B"/>
<circle cx="110.201" cy="260.528" r="3.3522" fill="#5B5B5B"/>
<circle cx="110.201" cy="294.05" r="3.3522" fill="#5B5B5B"/>
<circle cx="110.201" cy="327.572" r="3.3522" fill="#5B5B5B"/>
<circle cx="110.201" cy="361.094" r="3.3522" fill="#5B5B5B"/>
<circle cx="110.201" cy="394.616" r="3.3522" fill="#5B5B5B"/>
<circle cx="110.201" cy="428.138" r="3.3522" fill="#5B5B5B"/>
<circle cx="110.201" cy="461.66" r="3.3522" fill="#5B5B5B"/>
<circle cx="110.201" cy="495.182" r="3.3522" fill="#5B5B5B"/>
<circle cx="110.201" cy="528.704" r="3.3522" fill="#5B5B5B"/>
<circle cx="126.962" cy="25.8742" r="3.3522" fill="#5B5B5B"/>
<circle cx="126.962" cy="59.3961" r="3.3522" fill="#5B5B5B"/>
<circle cx="126.962" cy="92.9181" r="3.3522" fill="#5B5B5B"/>
<circle cx="126.962" cy="126.44" r="3.3522" fill="#5B5B5B"/>
<circle cx="126.962" cy="159.962" r="3.3522" fill="#5B5B5B"/>
<circle cx="126.962" cy="193.484" r="3.3522" fill="#5B5B5B"/>
<circle cx="126.962" cy="227.006" r="3.3522" fill="#5B5B5B"/>
<circle cx="126.962" cy="260.528" r="3.3522" fill="#5B5B5B"/>
<circle cx="126.962" cy="294.05" r="3.3522" fill="#5B5B5B"/>
<circle cx="126.962" cy="327.572" r="3.3522" fill="#5B5B5B"/>
<circle cx="126.962" cy="361.094" r="3.3522" fill="#5B5B5B"/>
<circle cx="126.962" cy="394.616" r="3.3522" fill="#5B5B5B"/>
<circle cx="126.962" cy="428.138" r="3.3522" fill="#5B5B5B"/>
<circle cx="126.962" cy="461.66" r="3.3522" fill="#5B5B5B"/>
<circle cx="126.962" cy="495.182" r="3.3522" fill="#5B5B5B"/>
<circle cx="126.962" cy="528.704" r="3.3522" fill="#5B5B5B"/>
<circle cx="143.723" cy="25.8742" r="3.3522" fill="#5B5B5B"/>
<circle cx="143.723" cy="59.3961" r="3.3522" fill="#5B5B5B"/>
<circle cx="143.723" cy="92.9181" r="3.3522" fill="#5B5B5B"/>
<circle cx="143.723" cy="126.44" r="3.3522" fill="#5B5B5B"/>
<circle cx="143.723" cy="159.962" r="3.3522" fill="#5B5B5B"/>
<circle cx="143.723" cy="193.484" r="3.3522" fill="#5B5B5B"/>
<circle cx="143.723" cy="227.006" r="3.3522" fill="#5B5B5B"/>
<circle cx="143.723" cy="260.528" r="3.3522" fill="#5B5B5B"/>
<circle cx="143.723" cy="294.05" r="3.3522" fill="#5B5B5B"/>
<circle cx="143.723" cy="327.572" r="3.3522" fill="#5B5B5B"/>
<circle cx="143.723" cy="361.094" r="3.3522" fill="#5B5B5B"/>
<circle cx="143.723" cy="394.616" r="3.3522" fill="#5B5B5B"/>
<circle cx="143.723" cy="428.138" r="3.3522" fill="#5B5B5B"/>
<circle cx="143.723" cy="461.66" r="3.3522" fill="#5B5B5B"/>
<circle cx="143.723" cy="495.182" r="3.3522" fill="#5B5B5B"/>
<circle cx="143.723" cy="528.704" r="3.3522" fill="#5B5B5B"/>
<circle cx="160.484" cy="25.8742" r="3.3522" fill="#5B5B5B"/>
<circle cx="160.484" cy="59.3961" r="3.3522" fill="#5B5B5B"/>
<circle cx="160.484" cy="92.9181" r="3.3522" fill="#5B5B5B"/>
<circle cx="160.484" cy="126.44" r="3.3522" fill="#5B5B5B"/>
<circle cx="160.484" cy="159.962" r="3.3522" fill="#5B5B5B"/>
<circle cx="160.484" cy="193.484" r="3.3522" fill="#5B5B5B"/>
<circle cx="160.484" cy="227.006" r="3.3522" fill="#5B5B5B"/>
<circle cx="160.484" cy="260.528" r="3.3522" fill="#5B5B5B"/>
<circle cx="160.484" cy="294.05" r="3.3522" fill="#5B5B5B"/>
<circle cx="160.484" cy="327.572" r="3.3522" fill="#5B5B5B"/>
<circle cx="160.484" cy="361.094" r="3.3522" fill="#5B5B5B"/>
<circle cx="160.484" cy="394.616" r="3.3522" fill="#5B5B5B"/>
<circle cx="160.484" cy="428.138" r="3.3522" fill="#5B5B5B"/>
<circle cx="160.484" cy="461.66" r="3.3522" fill="#5B5B5B"/>
<circle cx="160.484" cy="495.182" r="3.3522" fill="#5B5B5B"/>
<circle cx="160.484" cy="528.704" r="3.3522" fill="#5B5B5B"/>
<circle cx="177.245" cy="25.8742" r="3.3522" fill="#5B5B5B"/>
<circle cx="177.245" cy="59.3961" r="3.3522" fill="#5B5B5B"/>
<circle cx="177.245" cy="92.9181" r="3.3522" fill="#5B5B5B"/>
<circle cx="177.245" cy="126.44" r="3.3522" fill="#5B5B5B"/>
<circle cx="177.245" cy="159.962" r="3.3522" fill="#5B5B5B"/>
<circle cx="177.245" cy="193.484" r="3.3522" fill="#5B5B5B"/>
<circle cx="177.245" cy="227.006" r="3.3522" fill="#5B5B5B"/>
<circle cx="177.245" cy="260.528" r="3.3522" fill="#5B5B5B"/>
<circle cx="177.245" cy="294.05" r="3.3522" fill="#5B5B5B"/>
<circle cx="177.245" cy="327.572" r="3.3522" fill="#5B5B5B"/>
<circle cx="177.245" cy="361.094" r="3.3522" fill="#5B5B5B"/>
<circle cx="177.245" cy="394.616" r="3.3522" fill="#5B5B5B"/>
<circle cx="177.245" cy="428.138" r="3.3522" fill="#5B5B5B"/>
<circle cx="177.245" cy="461.66" r="3.3522" fill="#5B5B5B"/>
<circle cx="177.245" cy="495.182" r="3.3522" fill="#5B5B5B"/>
<circle cx="177.245" cy="528.704" r="3.3522" fill="#5B5B5B"/>
<circle cx="194.006" cy="25.8742" r="3.3522" fill="#5B5B5B"/>
<circle cx="194.006" cy="59.3961" r="3.3522" fill="#5B5B5B"/>
<circle cx="194.006" cy="92.9181" r="3.3522" fill="#5B5B5B"/>
<circle cx="194.006" cy="126.44" r="3.3522" fill="#5B5B5B"/>
<circle cx="194.006" cy="159.962" r="3.3522" fill="#5B5B5B"/>
<circle cx="194.006" cy="193.484" r="3.3522" fill="#5B5B5B"/>
<circle cx="194.006" cy="227.006" r="3.3522" fill="#5B5B5B"/>
<circle cx="194.006" cy="260.528" r="3.3522" fill="#5B5B5B"/>
<circle cx="194.006" cy="294.05" r="3.3522" fill="#5B5B5B"/>
<circle cx="194.006" cy="327.572" r="3.3522" fill="#5B5B5B"/>
<circle cx="194.006" cy="361.094" r="3.3522" fill="#5B5B5B"/>
<circle cx="194.006" cy="394.616" r="3.3522" fill="#5B5B5B"/>
<circle cx="194.006" cy="428.138" r="3.3522" fill="#5B5B5B"/>
<circle cx="194.006" cy="461.66" r="3.3522" fill="#5B5B5B"/>
<circle cx="194.006" cy="495.182" r="3.3522" fill="#5B5B5B"/>
<circle cx="194.006" cy="528.704" r="3.3522" fill="#5B5B5B"/>
<circle cx="210.767" cy="25.8742" r="3.3522" fill="#5B5B5B"/>
<circle cx="210.767" cy="59.3961" r="3.3522" fill="#5B5B5B"/>
<circle cx="210.767" cy="92.9181" r="3.3522" fill="#5B5B5B"/>
<circle cx="210.767" cy="126.44" r="3.3522" fill="#5B5B5B"/>
<circle cx="210.767" cy="159.962" r="3.3522" fill="#5B5B5B"/>
<circle cx="210.767" cy="193.484" r="3.3522" fill="#5B5B5B"/>
<circle cx="210.767" cy="227.006" r="3.3522" fill="#5B5B5B"/>
<circle cx="210.767" cy="260.528" r="3.3522" fill="#5B5B5B"/>
<circle cx="210.767" cy="294.05" r="3.3522" fill="#5B5B5B"/>
<circle cx="210.767" cy="327.572" r="3.3522" fill="#5B5B5B"/>
<circle cx="210.767" cy="361.094" r="3.3522" fill="#5B5B5B"/>
<circle cx="210.767" cy="394.616" r="3.3522" fill="#5B5B5B"/>
<circle cx="210.767" cy="428.138" r="3.3522" fill="#5B5B5B"/>
<circle cx="210.767" cy="461.66" r="3.3522" fill="#5B5B5B"/>
<circle cx="210.767" cy="495.182" r="3.3522" fill="#5B5B5B"/>
<circle cx="210.767" cy="528.704" r="3.3522" fill="#5B5B5B"/>
<circle cx="227.528" cy="25.8742" r="3.3522" fill="#5B5B5B"/>
<circle cx="227.528" cy="59.3961" r="3.3522" fill="#5B5B5B"/>
<circle cx="227.528" cy="92.9181" r="3.3522" fill="#5B5B5B"/>
<circle cx="227.528" cy="126.44" r="3.3522" fill="#5B5B5B"/>
<circle cx="227.528" cy="159.962" r="3.3522" fill="#5B5B5B"/>
<circle cx="227.528" cy="193.484" r="3.3522" fill="#5B5B5B"/>
<circle cx="227.528" cy="227.006" r="3.3522" fill="#5B5B5B"/>
<circle cx="227.528" cy="260.528" r="3.3522" fill="#5B5B5B"/>
<circle cx="227.528" cy="294.05" r="3.3522" fill="#5B5B5B"/>
<circle cx="227.528" cy="327.572" r="3.3522" fill="#5B5B5B"/>
<circle cx="227.528" cy="361.094" r="3.3522" fill="#5B5B5B"/>
<circle cx="227.528" cy="394.616" r="3.3522" fill="#5B5B5B"/>
<circle cx="227.528" cy="428.138" r="3.3522" fill="#5B5B5B"/>
<circle cx="227.528" cy="461.66" r="3.3522" fill="#5B5B5B"/>
<circle cx="227.528" cy="495.182" r="3.3522" fill="#5B5B5B"/>
<circle cx="227.528" cy="528.704" r="3.3522" fill="#5B5B5B"/>
<circle cx="244.289" cy="25.8742" r="3.3522" fill="#5B5B5B"/>
<circle cx="244.289" cy="59.3961" r="3.3522" fill="#5B5B5B"/>
<circle cx="244.289" cy="92.9181" r="3.3522" fill="#5B5B5B"/>
<circle cx="244.289" cy="126.44" r="3.3522" fill="#5B5B5B"/>
<circle cx="244.289" cy="159.962" r="3.3522" fill="#5B5B5B"/>
<circle cx="244.289" cy="193.484" r="3.3522" fill="#5B5B5B"/>
<circle cx="244.289" cy="227.006" r="3.3522" fill="#5B5B5B"/>
<circle cx="244.289" cy="260.528" r="3.3522" fill="#5B5B5B"/>
<circle cx="244.289" cy="294.05" r="3.3522" fill="#5B5B5B"/>
<circle cx="244.289" cy="327.572" r="3.3522" fill="#5B5B5B"/>
<circle cx="244.289" cy="361.094" r="3.3522" fill="#5B5B5B"/>
<circle cx="244.289" cy="394.616" r="3.3522" fill="#5B5B5B"/>
<circle cx="244.289" cy="428.138" r="3.3522" fill="#5B5B5B"/>
<circle cx="244.289" cy="461.66" r="3.3522" fill="#5B5B5B"/>
<circle cx="244.289" cy="495.182" r="3.3522" fill="#5B5B5B"/>
<circle cx="244.289" cy="528.704" r="3.3522" fill="#5B5B5B"/>
<circle cx="261.05" cy="25.8742" r="3.3522" fill="#5B5B5B"/>
<circle cx="261.05" cy="59.3961" r="3.3522" fill="#5B5B5B"/>
<circle cx="261.05" cy="92.9181" r="3.3522" fill="#5B5B5B"/>
<circle cx="261.05" cy="126.44" r="3.3522" fill="#5B5B5B"/>
<circle cx="261.05" cy="159.962" r="3.3522" fill="#5B5B5B"/>
<circle cx="261.05" cy="193.484" r="3.3522" fill="#5B5B5B"/>
<circle cx="261.05" cy="227.006" r="3.3522" fill="#5B5B5B"/>
<circle cx="261.05" cy="260.528" r="3.3522" fill="#5B5B5B"/>
<circle cx="261.05" cy="294.05" r="3.3522" fill="#5B5B5B"/>
<circle cx="261.05" cy="327.572" r="3.3522" fill="#5B5B5B"/>
<circle cx="261.05" cy="361.094" r="3.3522" fill="#5B5B5B"/>
<circle cx="261.05" cy="394.616" r="3.3522" fill="#5B5B5B"/>
<circle cx="261.05" cy="428.138" r="3.3522" fill="#5B5B5B"/>
<circle cx="261.05" cy="461.66" r="3.3522" fill="#5B5B5B"/>
<circle cx="261.05" cy="495.182" r="3.3522" fill="#5B5B5B"/>
<circle cx="261.05" cy="528.704" r="3.3522" fill="#5B5B5B"/>
<circle cx="277.811" cy="25.8742" r="3.3522" fill="#5B5B5B"/>
<circle cx="277.811" cy="59.3961" r="3.3522" fill="#5B5B5B"/>
<circle cx="277.811" cy="92.9181" r="3.3522" fill="#5B5B5B"/>
<circle cx="277.811" cy="126.44" r="3.3522" fill="#5B5B5B"/>
<circle cx="277.811" cy="159.962" r="3.3522" fill="#5B5B5B"/>
<circle cx="277.811" cy="193.484" r="3.3522" fill="#5B5B5B"/>
<circle cx="277.811" cy="227.006" r="3.3522" fill="#5B5B5B"/>
<circle cx="277.811" cy="260.528" r="3.3522" fill="#5B5B5B"/>
<circle cx="277.811" cy="294.05" r="3.3522" fill="#5B5B5B"/>
<circle cx="277.811" cy="327.572" r="3.3522" fill="#5B5B5B"/>
<circle cx="277.811" cy="361.094" r="3.3522" fill="#5B5B5B"/>
<circle cx="277.811" cy="394.616" r="3.3522" fill="#5B5B5B"/>
<circle cx="277.811" cy="428.138" r="3.3522" fill="#5B5B5B"/>
<circle cx="277.811" cy="461.66" r="3.3522" fill="#5B5B5B"/>
<circle cx="277.811" cy="495.182" r="3.3522" fill="#5B5B5B"/>
<circle cx="277.811" cy="528.704" r="3.3522" fill="#5B5B5B"/>
<circle cx="294.572" cy="25.8742" r="3.3522" fill="#5B5B5B"/>
<circle cx="294.572" cy="59.3961" r="3.3522" fill="#5B5B5B"/>
<circle cx="294.572" cy="92.9181" r="3.3522" fill="#5B5B5B"/>
<circle cx="294.572" cy="126.44" r="3.3522" fill="#5B5B5B"/>
<circle cx="294.572" cy="159.962" r="3.3522" fill="#5B5B5B"/>
<circle cx="294.572" cy="193.484" r="3.3522" fill="#5B5B5B"/>
<circle cx="294.572" cy="227.006" r="3.3522" fill="#5B5B5B"/>
<circle cx="294.572" cy="260.528" r="3.3522" fill="#5B5B5B"/>
<circle cx="294.572" cy="294.05" r="3.3522" fill="#5B5B5B"/>
<circle cx="294.572" cy="327.572" r="3.3522" fill="#5B5B5B"/>
<circle cx="294.572" cy="361.094" r="3.3522" fill="#5B5B5B"/>
<circle cx="294.572" cy="394.616" r="3.3522" fill="#5B5B5B"/>
<circle cx="294.572" cy="428.138" r="3.3522" fill="#5B5B5B"/>
<circle cx="294.572" cy="461.66" r="3.3522" fill="#5B5B5B"/>
<circle cx="294.572" cy="495.182" r="3.3522" fill="#5B5B5B"/>
<circle cx="294.572" cy="528.704" r="3.3522" fill="#5B5B5B"/>
<circle cx="311.333" cy="25.8742" r="3.3522" fill="#5B5B5B"/>
<circle cx="311.333" cy="59.3961" r="3.3522" fill="#5B5B5B"/>
<circle cx="311.333" cy="92.9181" r="3.3522" fill="#5B5B5B"/>
<circle cx="311.333" cy="126.44" r="3.3522" fill="#5B5B5B"/>
<circle cx="311.333" cy="159.962" r="3.3522" fill="#5B5B5B"/>
<circle cx="311.333" cy="193.484" r="3.3522" fill="#5B5B5B"/>
<circle cx="311.333" cy="227.006" r="3.3522" fill="#5B5B5B"/>
<circle cx="311.333" cy="260.528" r="3.3522" fill="#5B5B5B"/>
<circle cx="311.333" cy="294.05" r="3.3522" fill="#5B5B5B"/>
<circle cx="311.333" cy="327.572" r="3.3522" fill="#5B5B5B"/>
<circle cx="311.333" cy="361.094" r="3.3522" fill="#5B5B5B"/>
<circle cx="311.333" cy="394.616" r="3.3522" fill="#5B5B5B"/>
<circle cx="311.333" cy="428.138" r="3.3522" fill="#5B5B5B"/>
<circle cx="311.333" cy="461.66" r="3.3522" fill="#5B5B5B"/>
<circle cx="311.333" cy="495.182" r="3.3522" fill="#5B5B5B"/>
<circle cx="311.333" cy="528.704" r="3.3522" fill="#5B5B5B"/>
<circle cx="328.094" cy="25.8742" r="3.3522" fill="#5B5B5B"/>
<circle cx="328.094" cy="59.3961" r="3.3522" fill="#5B5B5B"/>
<circle cx="328.094" cy="92.9181" r="3.3522" fill="#5B5B5B"/>
<circle cx="328.094" cy="126.44" r="3.3522" fill="#5B5B5B"/>
<circle cx="328.094" cy="159.962" r="3.3522" fill="#5B5B5B"/>
<circle cx="328.094" cy="193.484" r="3.3522" fill="#5B5B5B"/>
<circle cx="328.094" cy="227.006" r="3.3522" fill="#5B5B5B"/>
<circle cx="328.094" cy="260.528" r="3.3522" fill="#5B5B5B"/>
<circle cx="328.094" cy="294.05" r="3.3522" fill="#5B5B5B"/>
<circle cx="328.094" cy="327.572" r="3.3522" fill="#5B5B5B"/>
<circle cx="328.094" cy="361.094" r="3.3522" fill="#5B5B5B"/>
<circle cx="328.094" cy="394.616" r="3.3522" fill="#5B5B5B"/>
<circle cx="328.094" cy="428.138" r="3.3522" fill="#5B5B5B"/>
<circle cx="328.094" cy="461.66" r="3.3522" fill="#5B5B5B"/>
<circle cx="328.094" cy="495.182" r="3.3522" fill="#5B5B5B"/>
<circle cx="328.094" cy="528.704" r="3.3522" fill="#5B5B5B"/>
<circle cx="344.855" cy="25.8742" r="3.3522" fill="#5B5B5B"/>
<circle cx="344.855" cy="59.3961" r="3.3522" fill="#5B5B5B"/>
<circle cx="344.855" cy="92.9181" r="3.3522" fill="#5B5B5B"/>
<circle cx="344.855" cy="126.44" r="3.3522" fill="#5B5B5B"/>
<circle cx="344.855" cy="159.962" r="3.3522" fill="#5B5B5B"/>
<circle cx="344.855" cy="193.484" r="3.3522" fill="#5B5B5B"/>
<circle cx="344.855" cy="227.006" r="3.3522" fill="#5B5B5B"/>
<circle cx="344.855" cy="260.528" r="3.3522" fill="#5B5B5B"/>
<circle cx="344.855" cy="294.05" r="3.3522" fill="#5B5B5B"/>
<circle cx="344.855" cy="327.572" r="3.3522" fill="#5B5B5B"/>
<circle cx="344.855" cy="361.094" r="3.3522" fill="#5B5B5B"/>
<circle cx="344.855" cy="394.616" r="3.3522" fill="#5B5B5B"/>
<circle cx="344.855" cy="428.138" r="3.3522" fill="#5B5B5B"/>
<circle cx="344.855" cy="461.66" r="3.3522" fill="#5B5B5B"/>
<circle cx="344.855" cy="495.182" r="3.3522" fill="#5B5B5B"/>
<circle cx="344.855" cy="528.704" r="3.3522" fill="#5B5B5B"/>
<circle cx="361.616" cy="25.8742" r="3.3522" fill="#5B5B5B"/>
<circle cx="361.616" cy="59.3961" r="3.3522" fill="#5B5B5B"/>
<circle cx="361.616" cy="92.9181" r="3.3522" fill="#5B5B5B"/>
<circle cx="361.616" cy="126.44" r="3.3522" fill="#5B5B5B"/>
<circle cx="361.616" cy="159.962" r="3.3522" fill="#5B5B5B"/>
<circle cx="361.616" cy="193.484" r="3.3522" fill="#5B5B5B"/>
<circle cx="361.616" cy="227.006" r="3.3522" fill="#5B5B5B"/>
<circle cx="361.616" cy="260.528" r="3.3522" fill="#5B5B5B"/>
<circle cx="361.616" cy="294.05" r="3.3522" fill="#5B5B5B"/>
<circle cx="361.616" cy="327.572" r="3.3522" fill="#5B5B5B"/>
<circle cx="361.616" cy="361.094" r="3.3522" fill="#5B5B5B"/>
<circle cx="361.616" cy="394.616" r="3.3522" fill="#5B5B5B"/>
<circle cx="361.616" cy="428.138" r="3.3522" fill="#5B5B5B"/>
<circle cx="361.616" cy="461.66" r="3.3522" fill="#5B5B5B"/>
<circle cx="361.616" cy="495.182" r="3.3522" fill="#5B5B5B"/>
<circle cx="361.616" cy="528.704" r="3.3522" fill="#5B5B5B"/>
<circle cx="378.377" cy="25.8742" r="3.3522" fill="#5B5B5B"/>
<circle cx="378.377" cy="59.3961" r="3.3522" fill="#5B5B5B"/>
<circle cx="378.377" cy="92.9181" r="3.3522" fill="#5B5B5B"/>
<circle cx="378.377" cy="126.44" r="3.3522" fill="#5B5B5B"/>
<circle cx="378.377" cy="159.962" r="3.3522" fill="#5B5B5B"/>
<circle cx="378.377" cy="193.484" r="3.3522" fill="#5B5B5B"/>
<circle cx="378.377" cy="227.006" r="3.3522" fill="#5B5B5B"/>
<circle cx="378.377" cy="260.528" r="3.3522" fill="#5B5B5B"/>
<circle cx="378.377" cy="294.05" r="3.3522" fill="#5B5B5B"/>
<circle cx="378.377" cy="327.572" r="3.3522" fill="#5B5B5B"/>
<circle cx="378.377" cy="361.094" r="3.3522" fill="#5B5B5B"/>
<circle cx="378.377" cy="394.616" r="3.3522" fill="#5B5B5B"/>
<circle cx="378.377" cy="428.138" r="3.3522" fill="#5B5B5B"/>
<circle cx="378.377" cy="461.66" r="3.3522" fill="#5B5B5B"/>
<circle cx="378.377" cy="495.182" r="3.3522" fill="#5B5B5B"/>
<circle cx="378.377" cy="528.704" r="3.3522" fill="#5B5B5B"/>
<circle cx="395.138" cy="25.8742" r="3.3522" fill="#5B5B5B"/>
<circle cx="395.138" cy="59.3961" r="3.3522" fill="#5B5B5B"/>
<circle cx="395.138" cy="92.9181" r="3.3522" fill="#5B5B5B"/>
<circle cx="395.138" cy="126.44" r="3.3522" fill="#5B5B5B"/>
<circle cx="395.138" cy="159.962" r="3.3522" fill="#5B5B5B"/>
<circle cx="395.138" cy="193.484" r="3.3522" fill="#5B5B5B"/>
<circle cx="395.138" cy="227.006" r="3.3522" fill="#5B5B5B"/>
<circle cx="395.138" cy="260.528" r="3.3522" fill="#5B5B5B"/>
<circle cx="395.138" cy="294.05" r="3.3522" fill="#5B5B5B"/>
<circle cx="395.138" cy="327.572" r="3.3522" fill="#5B5B5B"/>
<circle cx="395.138" cy="361.094" r="3.3522" fill="#5B5B5B"/>
<circle cx="395.138" cy="394.616" r="3.3522" fill="#5B5B5B"/>
<circle cx="395.138" cy="428.138" r="3.3522" fill="#5B5B5B"/>
<circle cx="395.138" cy="461.66" r="3.3522" fill="#5B5B5B"/>
<circle cx="395.138" cy="495.182" r="3.3522" fill="#5B5B5B"/>
<circle cx="395.138" cy="528.704" r="3.3522" fill="#5B5B5B"/>
<circle cx="411.899" cy="25.8742" r="3.3522" fill="#5B5B5B"/>
<circle cx="411.899" cy="59.3961" r="3.3522" fill="#5B5B5B"/>
<circle cx="411.899" cy="92.9181" r="3.3522" fill="#5B5B5B"/>
<circle cx="411.899" cy="126.44" r="3.3522" fill="#5B5B5B"/>
<circle cx="411.899" cy="159.962" r="3.3522" fill="#5B5B5B"/>
<circle cx="411.899" cy="193.484" r="3.3522" fill="#5B5B5B"/>
<circle cx="411.899" cy="227.006" r="3.3522" fill="#5B5B5B"/>
<circle cx="411.899" cy="260.528" r="3.3522" fill="#5B5B5B"/>
<circle cx="411.899" cy="294.05" r="3.3522" fill="#5B5B5B"/>
<circle cx="411.899" cy="327.572" r="3.3522" fill="#5B5B5B"/>
<circle cx="411.899" cy="361.094" r="3.3522" fill="#5B5B5B"/>
<circle cx="411.899" cy="394.616" r="3.3522" fill="#5B5B5B"/>
<circle cx="411.899" cy="428.138" r="3.3522" fill="#5B5B5B"/>
<circle cx="411.899" cy="461.66" r="3.3522" fill="#5B5B5B"/>
<circle cx="411.899" cy="495.182" r="3.3522" fill="#5B5B5B"/>
<circle cx="411.899" cy="528.704" r="3.3522" fill="#5B5B5B"/>
<circle cx="428.66" cy="25.8742" r="3.3522" fill="#5B5B5B"/>
<circle cx="428.66" cy="59.3961" r="3.3522" fill="#5B5B5B"/>
<circle cx="428.66" cy="92.9181" r="3.3522" fill="#5B5B5B"/>
<circle cx="428.66" cy="126.44" r="3.3522" fill="#5B5B5B"/>
<circle cx="428.66" cy="159.962" r="3.3522" fill="#5B5B5B"/>
<circle cx="428.66" cy="193.484" r="3.3522" fill="#5B5B5B"/>
<circle cx="428.66" cy="227.006" r="3.3522" fill="#5B5B5B"/>
<circle cx="428.66" cy="260.528" r="3.3522" fill="#5B5B5B"/>
<circle cx="428.66" cy="294.05" r="3.3522" fill="#5B5B5B"/>
<circle cx="428.66" cy="327.572" r="3.3522" fill="#5B5B5B"/>
<circle cx="428.66" cy="361.094" r="3.3522" fill="#5B5B5B"/>
<circle cx="428.66" cy="394.616" r="3.3522" fill="#5B5B5B"/>
<circle cx="428.66" cy="428.138" r="3.3522" fill="#5B5B5B"/>
<circle cx="428.66" cy="461.66" r="3.3522" fill="#5B5B5B"/>
<circle cx="428.66" cy="495.182" r="3.3522" fill="#5B5B5B"/>
<circle cx="428.66" cy="528.704" r="3.3522" fill="#5B5B5B"/>
<circle cx="445.421" cy="25.8742" r="3.3522" fill="#5B5B5B"/>
<circle cx="445.421" cy="59.3961" r="3.3522" fill="#5B5B5B"/>
<circle cx="445.421" cy="92.9181" r="3.3522" fill="#5B5B5B"/>
<circle cx="445.421" cy="126.44" r="3.3522" fill="#5B5B5B"/>
<circle cx="445.421" cy="159.962" r="3.3522" fill="#5B5B5B"/>
<circle cx="445.421" cy="193.484" r="3.3522" fill="#5B5B5B"/>
<circle cx="445.421" cy="227.006" r="3.3522" fill="#5B5B5B"/>
<circle cx="445.421" cy="260.528" r="3.3522" fill="#5B5B5B"/>
<circle cx="445.421" cy="294.05" r="3.3522" fill="#5B5B5B"/>
<circle cx="445.421" cy="327.572" r="3.3522" fill="#5B5B5B"/>
<circle cx="445.421" cy="361.094" r="3.3522" fill="#5B5B5B"/>
<circle cx="445.421" cy="394.616" r="3.3522" fill="#5B5B5B"/>
<circle cx="445.421" cy="428.138" r="3.3522" fill="#5B5B5B"/>
<circle cx="445.421" cy="461.66" r="3.3522" fill="#5B5B5B"/>
<circle cx="445.421" cy="495.182" r="3.3522" fill="#5B5B5B"/>
<circle cx="445.421" cy="528.704" r="3.3522" fill="#5B5B5B"/>
<circle cx="462.182" cy="25.8742" r="3.3522" fill="#5B5B5B"/>
<circle cx="462.182" cy="59.3961" r="3.3522" fill="#5B5B5B"/>
<circle cx="462.182" cy="92.9181" r="3.3522" fill="#5B5B5B"/>
<circle cx="462.182" cy="126.44" r="3.3522" fill="#5B5B5B"/>
<circle cx="462.182" cy="159.962" r="3.3522" fill="#5B5B5B"/>
<circle cx="462.182" cy="193.484" r="3.3522" fill="#5B5B5B"/>
<circle cx="462.182" cy="227.006" r="3.3522" fill="#5B5B5B"/>
<circle cx="462.182" cy="260.528" r="3.3522" fill="#5B5B5B"/>
<circle cx="462.182" cy="294.05" r="3.3522" fill="#5B5B5B"/>
<circle cx="462.182" cy="327.572" r="3.3522" fill="#5B5B5B"/>
<circle cx="462.182" cy="361.094" r="3.3522" fill="#5B5B5B"/>
<circle cx="462.182" cy="394.616" r="3.3522" fill="#5B5B5B"/>
<circle cx="462.182" cy="428.138" r="3.3522" fill="#5B5B5B"/>
<circle cx="462.182" cy="461.66" r="3.3522" fill="#5B5B5B"/>
<circle cx="462.182" cy="495.182" r="3.3522" fill="#5B5B5B"/>
<circle cx="462.182" cy="528.704" r="3.3522" fill="#5B5B5B"/>
<circle cx="478.943" cy="25.8742" r="3.3522" fill="#5B5B5B"/>
<circle cx="478.943" cy="59.3961" r="3.3522" fill="#5B5B5B"/>
<circle cx="478.943" cy="92.9181" r="3.3522" fill="#5B5B5B"/>
<circle cx="478.943" cy="126.44" r="3.3522" fill="#5B5B5B"/>
<circle cx="478.943" cy="159.962" r="3.3522" fill="#5B5B5B"/>
<circle cx="478.943" cy="193.484" r="3.3522" fill="#5B5B5B"/>
<circle cx="478.943" cy="227.006" r="3.3522" fill="#5B5B5B"/>
<circle cx="478.943" cy="260.528" r="3.3522" fill="#5B5B5B"/>
<circle cx="478.943" cy="294.05" r="3.3522" fill="#5B5B5B"/>
<circle cx="478.943" cy="327.572" r="3.3522" fill="#5B5B5B"/>
<circle cx="478.943" cy="361.094" r="3.3522" fill="#5B5B5B"/>
<circle cx="478.943" cy="394.616" r="3.3522" fill="#5B5B5B"/>
<circle cx="478.943" cy="428.138" r="3.3522" fill="#5B5B5B"/>
<circle cx="478.943" cy="461.66" r="3.3522" fill="#5B5B5B"/>
<circle cx="478.943" cy="495.182" r="3.3522" fill="#5B5B5B"/>
<circle cx="478.943" cy="528.704" r="3.3522" fill="#5B5B5B"/>
<circle cx="495.704" cy="25.8742" r="3.3522" fill="#5B5B5B"/>
<circle cx="495.704" cy="59.3961" r="3.3522" fill="#5B5B5B"/>
<circle cx="495.704" cy="92.9181" r="3.3522" fill="#5B5B5B"/>
<circle cx="495.704" cy="126.44" r="3.3522" fill="#5B5B5B"/>
<circle cx="495.704" cy="159.962" r="3.3522" fill="#5B5B5B"/>
<circle cx="495.704" cy="193.484" r="3.3522" fill="#5B5B5B"/>
<circle cx="495.704" cy="227.006" r="3.3522" fill="#5B5B5B"/>
<circle cx="495.704" cy="260.528" r="3.3522" fill="#5B5B5B"/>
<circle cx="495.704" cy="294.05" r="3.3522" fill="#5B5B5B"/>
<circle cx="495.704" cy="327.572" r="3.3522" fill="#5B5B5B"/>
<circle cx="495.704" cy="361.094" r="3.3522" fill="#5B5B5B"/>
<circle cx="495.704" cy="394.616" r="3.3522" fill="#5B5B5B"/>
<circle cx="495.704" cy="428.138" r="3.3522" fill="#5B5B5B"/>
<circle cx="495.704" cy="461.66" r="3.3522" fill="#5B5B5B"/>
<circle cx="495.704" cy="495.182" r="3.3522" fill="#5B5B5B"/>
<circle cx="495.704" cy="528.704" r="3.3522" fill="#5B5B5B"/>
<circle cx="512.465" cy="25.8742" r="3.3522" fill="#5B5B5B"/>
<circle cx="512.465" cy="59.3961" r="3.3522" fill="#5B5B5B"/>
<circle cx="512.465" cy="92.9181" r="3.3522" fill="#5B5B5B"/>
<circle cx="512.465" cy="126.44" r="3.3522" fill="#5B5B5B"/>
<circle cx="512.465" cy="159.962" r="3.3522" fill="#5B5B5B"/>
<circle cx="512.465" cy="193.484" r="3.3522" fill="#5B5B5B"/>
<circle cx="512.465" cy="227.006" r="3.3522" fill="#5B5B5B"/>
<circle cx="512.465" cy="260.528" r="3.3522" fill="#5B5B5B"/>
<circle cx="512.465" cy="294.05" r="3.3522" fill="#5B5B5B"/>
<circle cx="512.465" cy="327.572" r="3.3522" fill="#5B5B5B"/>
<circle cx="512.465" cy="361.094" r="3.3522" fill="#5B5B5B"/>
<circle cx="512.465" cy="394.616" r="3.3522" fill="#5B5B5B"/>
<circle cx="512.465" cy="428.138" r="3.3522" fill="#5B5B5B"/>
<circle cx="512.465" cy="461.66" r="3.3522" fill="#5B5B5B"/>
<circle cx="512.465" cy="495.182" r="3.3522" fill="#5B5B5B"/>
<circle cx="512.465" cy="528.704" r="3.3522" fill="#5B5B5B"/>
<circle cx="-2.09751" cy="9.11319" r="3.3522" fill="#5B5B5B"/>
<circle cx="-2.09751" cy="42.6352" r="3.3522" fill="#5B5B5B"/>
<circle cx="-2.09751" cy="76.1571" r="3.3522" fill="#5B5B5B"/>
<circle cx="-2.09751" cy="109.679" r="3.3522" fill="#5B5B5B"/>
<circle cx="-2.09751" cy="143.201" r="3.3522" fill="#5B5B5B"/>
<circle cx="-2.09751" cy="176.723" r="3.3522" fill="#5B5B5B"/>
<circle cx="-2.09751" cy="210.245" r="3.3522" fill="#5B5B5B"/>
<circle cx="-2.09751" cy="243.767" r="3.3522" fill="#5B5B5B"/>
<circle cx="-2.09751" cy="277.289" r="3.3522" fill="#5B5B5B"/>
<circle cx="-2.09751" cy="310.811" r="3.3522" fill="#5B5B5B"/>
<circle cx="-2.09751" cy="344.333" r="3.3522" fill="#5B5B5B"/>
<circle cx="-2.09751" cy="377.855" r="3.3522" fill="#5B5B5B"/>
<circle cx="-2.09751" cy="411.377" r="3.3522" fill="#5B5B5B"/>
<circle cx="-2.09751" cy="444.899" r="3.3522" fill="#5B5B5B"/>
<circle cx="-2.09751" cy="478.421" r="3.3522" fill="#5B5B5B"/>
<circle cx="-2.09751" cy="511.944" r="3.3522" fill="#5B5B5B"/>
<circle cx="-2.09751" cy="545.465" r="3.3522" fill="#5B5B5B"/>
<circle cx="14.6635" cy="9.11319" r="3.3522" fill="#5B5B5B"/>
<circle cx="14.6635" cy="42.6352" r="3.3522" fill="#5B5B5B"/>
<circle cx="14.6635" cy="76.1571" r="3.3522" fill="#5B5B5B"/>
<circle cx="14.6635" cy="109.679" r="3.3522" fill="#5B5B5B"/>
<circle cx="14.6635" cy="143.201" r="3.3522" fill="#5B5B5B"/>
<circle cx="14.6635" cy="176.723" r="3.3522" fill="#5B5B5B"/>
<circle cx="14.6635" cy="210.245" r="3.3522" fill="#5B5B5B"/>
<circle cx="14.6635" cy="243.767" r="3.3522" fill="#5B5B5B"/>
<circle cx="14.6635" cy="277.289" r="3.3522" fill="#5B5B5B"/>
<circle cx="14.6635" cy="310.811" r="3.3522" fill="#5B5B5B"/>
<circle cx="14.6635" cy="344.333" r="3.3522" fill="#5B5B5B"/>
<circle cx="14.6635" cy="377.855" r="3.3522" fill="#5B5B5B"/>
<circle cx="14.6635" cy="411.377" r="3.3522" fill="#5B5B5B"/>
<circle cx="14.6635" cy="444.899" r="3.3522" fill="#5B5B5B"/>
<circle cx="14.6635" cy="478.421" r="3.3522" fill="#5B5B5B"/>
<circle cx="14.6635" cy="511.944" r="3.3522" fill="#5B5B5B"/>
<circle cx="14.6635" cy="545.465" r="3.3522" fill="#5B5B5B"/>
<circle cx="31.4245" cy="9.11319" r="3.3522" fill="#5B5B5B"/>
<circle cx="31.4245" cy="42.6352" r="3.3522" fill="#5B5B5B"/>
<circle cx="31.4245" cy="76.1571" r="3.3522" fill="#5B5B5B"/>
<circle cx="31.4245" cy="109.679" r="3.3522" fill="#5B5B5B"/>
<circle cx="31.4245" cy="143.201" r="3.3522" fill="#5B5B5B"/>
<circle cx="31.4245" cy="176.723" r="3.3522" fill="#5B5B5B"/>
<circle cx="31.4245" cy="210.245" r="3.3522" fill="#5B5B5B"/>
<circle cx="31.4245" cy="243.767" r="3.3522" fill="#5B5B5B"/>
<circle cx="31.4245" cy="277.289" r="3.3522" fill="#5B5B5B"/>
<circle cx="31.4245" cy="310.811" r="3.3522" fill="#5B5B5B"/>
<circle cx="31.4245" cy="344.333" r="3.3522" fill="#5B5B5B"/>
<circle cx="31.4245" cy="377.855" r="3.3522" fill="#5B5B5B"/>
<circle cx="31.4245" cy="411.377" r="3.3522" fill="#5B5B5B"/>
<circle cx="31.4245" cy="444.899" r="3.3522" fill="#5B5B5B"/>
<circle cx="31.4245" cy="478.421" r="3.3522" fill="#5B5B5B"/>
<circle cx="31.4245" cy="511.944" r="3.3522" fill="#5B5B5B"/>
<circle cx="31.4245" cy="545.465" r="3.3522" fill="#5B5B5B"/>
<circle cx="48.1855" cy="9.11319" r="3.3522" fill="#5B5B5B"/>
<circle cx="48.1855" cy="42.6352" r="3.3522" fill="#5B5B5B"/>
<circle cx="48.1855" cy="76.1571" r="3.3522" fill="#5B5B5B"/>
<circle cx="48.1855" cy="109.679" r="3.3522" fill="#5B5B5B"/>
<circle cx="48.1855" cy="143.201" r="3.3522" fill="#5B5B5B"/>
<circle cx="48.1855" cy="176.723" r="3.3522" fill="#5B5B5B"/>
<circle cx="48.1855" cy="210.245" r="3.3522" fill="#5B5B5B"/>
<circle cx="48.1855" cy="243.767" r="3.3522" fill="#5B5B5B"/>
<circle cx="48.1855" cy="277.289" r="3.3522" fill="#5B5B5B"/>
<circle cx="48.1855" cy="310.811" r="3.3522" fill="#5B5B5B"/>
<circle cx="48.1855" cy="344.333" r="3.3522" fill="#5B5B5B"/>
<circle cx="48.1855" cy="377.855" r="3.3522" fill="#5B5B5B"/>
<circle cx="48.1855" cy="411.377" r="3.3522" fill="#5B5B5B"/>
<circle cx="48.1855" cy="444.899" r="3.3522" fill="#5B5B5B"/>
<circle cx="48.1855" cy="478.421" r="3.3522" fill="#5B5B5B"/>
<circle cx="48.1855" cy="511.944" r="3.3522" fill="#5B5B5B"/>
<circle cx="48.1855" cy="545.465" r="3.3522" fill="#5B5B5B"/>
<circle cx="64.9465" cy="9.11319" r="3.3522" fill="#5B5B5B"/>
<circle cx="64.9465" cy="42.6352" r="3.3522" fill="#5B5B5B"/>
<circle cx="64.9465" cy="76.1571" r="3.3522" fill="#5B5B5B"/>
<circle cx="64.9465" cy="109.679" r="3.3522" fill="#5B5B5B"/>
<circle cx="64.9465" cy="143.201" r="3.3522" fill="#5B5B5B"/>
<circle cx="64.9465" cy="176.723" r="3.3522" fill="#5B5B5B"/>
<circle cx="64.9465" cy="210.245" r="3.3522" fill="#5B5B5B"/>
<circle cx="64.9465" cy="243.767" r="3.3522" fill="#5B5B5B"/>
<circle cx="64.9465" cy="277.289" r="3.3522" fill="#5B5B5B"/>
<circle cx="64.9465" cy="310.811" r="3.3522" fill="#5B5B5B"/>
<circle cx="64.9465" cy="344.333" r="3.3522" fill="#5B5B5B"/>
<circle cx="64.9465" cy="377.855" r="3.3522" fill="#5B5B5B"/>
<circle cx="64.9465" cy="411.377" r="3.3522" fill="#5B5B5B"/>
<circle cx="64.9465" cy="444.899" r="3.3522" fill="#5B5B5B"/>
<circle cx="64.9465" cy="478.421" r="3.3522" fill="#5B5B5B"/>
<circle cx="64.9465" cy="511.944" r="3.3522" fill="#5B5B5B"/>
<circle cx="64.9465" cy="545.465" r="3.3522" fill="#5B5B5B"/>
<circle cx="81.7076" cy="9.11319" r="3.3522" fill="#5B5B5B"/>
<circle cx="81.7076" cy="42.6352" r="3.3522" fill="#5B5B5B"/>
<circle cx="81.7076" cy="76.1571" r="3.3522" fill="#5B5B5B"/>
<circle cx="81.7076" cy="109.679" r="3.3522" fill="#5B5B5B"/>
<circle cx="81.7076" cy="143.201" r="3.3522" fill="#5B5B5B"/>
<circle cx="81.7076" cy="176.723" r="3.3522" fill="#5B5B5B"/>
<circle cx="81.7076" cy="210.245" r="3.3522" fill="#5B5B5B"/>
<circle cx="81.7076" cy="243.767" r="3.3522" fill="#5B5B5B"/>
<circle cx="81.7076" cy="277.289" r="3.3522" fill="#5B5B5B"/>
<circle cx="81.7076" cy="310.811" r="3.3522" fill="#5B5B5B"/>
<circle cx="81.7076" cy="344.333" r="3.3522" fill="#5B5B5B"/>
<circle cx="81.7076" cy="377.855" r="3.3522" fill="#5B5B5B"/>
<circle cx="81.7076" cy="411.377" r="3.3522" fill="#5B5B5B"/>
<circle cx="81.7076" cy="444.899" r="3.3522" fill="#5B5B5B"/>
<circle cx="81.7076" cy="478.421" r="3.3522" fill="#5B5B5B"/>
<circle cx="81.7076" cy="511.944" r="3.3522" fill="#5B5B5B"/>
<circle cx="81.7076" cy="545.465" r="3.3522" fill="#5B5B5B"/>
<circle cx="98.4685" cy="9.11319" r="3.3522" fill="#5B5B5B"/>
<circle cx="98.4685" cy="42.6352" r="3.3522" fill="#5B5B5B"/>
<circle cx="98.4685" cy="76.1571" r="3.3522" fill="#5B5B5B"/>
<circle cx="98.4685" cy="109.679" r="3.3522" fill="#5B5B5B"/>
<circle cx="98.4685" cy="143.201" r="3.3522" fill="#5B5B5B"/>
<circle cx="98.4685" cy="176.723" r="3.3522" fill="#5B5B5B"/>
<circle cx="98.4685" cy="210.245" r="3.3522" fill="#5B5B5B"/>
<circle cx="98.4685" cy="243.767" r="3.3522" fill="#5B5B5B"/>
<circle cx="98.4685" cy="277.289" r="3.3522" fill="#5B5B5B"/>
<circle cx="98.4685" cy="310.811" r="3.3522" fill="#5B5B5B"/>
<circle cx="98.4685" cy="344.333" r="3.3522" fill="#5B5B5B"/>
<circle cx="98.4685" cy="377.855" r="3.3522" fill="#5B5B5B"/>
<circle cx="98.4685" cy="411.377" r="3.3522" fill="#5B5B5B"/>
<circle cx="98.4685" cy="444.899" r="3.3522" fill="#5B5B5B"/>
<circle cx="98.4685" cy="478.421" r="3.3522" fill="#5B5B5B"/>
<circle cx="98.4685" cy="511.944" r="3.3522" fill="#5B5B5B"/>
<circle cx="98.4685" cy="545.465" r="3.3522" fill="#5B5B5B"/>
<circle cx="115.23" cy="9.11319" r="3.3522" fill="#5B5B5B"/>
<circle cx="115.23" cy="42.6352" r="3.3522" fill="#5B5B5B"/>
<circle cx="115.23" cy="76.1571" r="3.3522" fill="#5B5B5B"/>
<circle cx="115.23" cy="109.679" r="3.3522" fill="#5B5B5B"/>
<circle cx="115.23" cy="143.201" r="3.3522" fill="#5B5B5B"/>
<circle cx="115.23" cy="176.723" r="3.3522" fill="#5B5B5B"/>
<circle cx="115.23" cy="210.245" r="3.3522" fill="#5B5B5B"/>
<circle cx="115.23" cy="243.767" r="3.3522" fill="#5B5B5B"/>
<circle cx="115.23" cy="277.289" r="3.3522" fill="#5B5B5B"/>
<circle cx="115.23" cy="310.811" r="3.3522" fill="#5B5B5B"/>
<circle cx="115.23" cy="344.333" r="3.3522" fill="#5B5B5B"/>
<circle cx="115.23" cy="377.855" r="3.3522" fill="#5B5B5B"/>
<circle cx="115.23" cy="411.377" r="3.3522" fill="#5B5B5B"/>
<circle cx="115.23" cy="444.899" r="3.3522" fill="#5B5B5B"/>
<circle cx="115.23" cy="478.421" r="3.3522" fill="#5B5B5B"/>
<circle cx="115.23" cy="511.944" r="3.3522" fill="#5B5B5B"/>
<circle cx="115.23" cy="545.465" r="3.3522" fill="#5B5B5B"/>
<circle cx="131.991" cy="9.11319" r="3.3522" fill="#5B5B5B"/>
<circle cx="131.991" cy="42.6352" r="3.3522" fill="#5B5B5B"/>
<circle cx="131.991" cy="76.1571" r="3.3522" fill="#5B5B5B"/>
<circle cx="131.991" cy="109.679" r="3.3522" fill="#5B5B5B"/>
<circle cx="131.991" cy="143.201" r="3.3522" fill="#5B5B5B"/>
<circle cx="131.991" cy="176.723" r="3.3522" fill="#5B5B5B"/>
<circle cx="131.991" cy="210.245" r="3.3522" fill="#5B5B5B"/>
<circle cx="131.991" cy="243.767" r="3.3522" fill="#5B5B5B"/>
<circle cx="131.991" cy="277.289" r="3.3522" fill="#5B5B5B"/>
<circle cx="131.991" cy="310.811" r="3.3522" fill="#5B5B5B"/>
<circle cx="131.991" cy="344.333" r="3.3522" fill="#5B5B5B"/>
<circle cx="131.991" cy="377.855" r="3.3522" fill="#5B5B5B"/>
<circle cx="131.991" cy="411.377" r="3.3522" fill="#5B5B5B"/>
<circle cx="131.991" cy="444.899" r="3.3522" fill="#5B5B5B"/>
<circle cx="131.991" cy="478.421" r="3.3522" fill="#5B5B5B"/>
<circle cx="131.991" cy="511.944" r="3.3522" fill="#5B5B5B"/>
<circle cx="131.991" cy="545.465" r="3.3522" fill="#5B5B5B"/>
<circle cx="148.752" cy="9.11319" r="3.3522" fill="#5B5B5B"/>
<circle cx="148.752" cy="42.6352" r="3.3522" fill="#5B5B5B"/>
<circle cx="148.752" cy="76.1571" r="3.3522" fill="#5B5B5B"/>
<circle cx="148.752" cy="109.679" r="3.3522" fill="#5B5B5B"/>
<circle cx="148.752" cy="143.201" r="3.3522" fill="#5B5B5B"/>
<circle cx="148.752" cy="176.723" r="3.3522" fill="#5B5B5B"/>
<circle cx="148.752" cy="210.245" r="3.3522" fill="#5B5B5B"/>
<circle cx="148.752" cy="243.767" r="3.3522" fill="#5B5B5B"/>
<circle cx="148.752" cy="277.289" r="3.3522" fill="#5B5B5B"/>
<circle cx="148.752" cy="310.811" r="3.3522" fill="#5B5B5B"/>
<circle cx="148.752" cy="344.333" r="3.3522" fill="#5B5B5B"/>
<circle cx="148.752" cy="377.855" r="3.3522" fill="#5B5B5B"/>
<circle cx="148.752" cy="411.377" r="3.3522" fill="#5B5B5B"/>
<circle cx="148.752" cy="444.899" r="3.3522" fill="#5B5B5B"/>
<circle cx="148.752" cy="478.421" r="3.3522" fill="#5B5B5B"/>
<circle cx="148.752" cy="511.944" r="3.3522" fill="#5B5B5B"/>
<circle cx="148.752" cy="545.465" r="3.3522" fill="#5B5B5B"/>
<circle cx="165.513" cy="9.11319" r="3.3522" fill="#5B5B5B"/>
<circle cx="165.513" cy="42.6352" r="3.3522" fill="#5B5B5B"/>
<circle cx="165.513" cy="76.1571" r="3.3522" fill="#5B5B5B"/>
<circle cx="165.513" cy="109.679" r="3.3522" fill="#5B5B5B"/>
<circle cx="165.513" cy="143.201" r="3.3522" fill="#5B5B5B"/>
<circle cx="165.513" cy="176.723" r="3.3522" fill="#5B5B5B"/>
<circle cx="165.513" cy="210.245" r="3.3522" fill="#5B5B5B"/>
<circle cx="165.513" cy="243.767" r="3.3522" fill="#5B5B5B"/>
<circle cx="165.513" cy="277.289" r="3.3522" fill="#5B5B5B"/>
<circle cx="165.513" cy="310.811" r="3.3522" fill="#5B5B5B"/>
<circle cx="165.513" cy="344.333" r="3.3522" fill="#5B5B5B"/>
<circle cx="165.513" cy="377.855" r="3.3522" fill="#5B5B5B"/>
<circle cx="165.513" cy="411.377" r="3.3522" fill="#5B5B5B"/>
<circle cx="165.513" cy="444.899" r="3.3522" fill="#5B5B5B"/>
<circle cx="165.513" cy="478.421" r="3.3522" fill="#5B5B5B"/>
<circle cx="165.513" cy="511.944" r="3.3522" fill="#5B5B5B"/>
<circle cx="165.513" cy="545.465" r="3.3522" fill="#5B5B5B"/>
<circle cx="182.274" cy="9.11319" r="3.3522" fill="#5B5B5B"/>
<circle cx="182.274" cy="42.6352" r="3.3522" fill="#5B5B5B"/>
<circle cx="182.274" cy="76.1571" r="3.3522" fill="#5B5B5B"/>
<circle cx="182.274" cy="109.679" r="3.3522" fill="#5B5B5B"/>
<circle cx="182.274" cy="143.201" r="3.3522" fill="#5B5B5B"/>
<circle cx="182.274" cy="176.723" r="3.3522" fill="#5B5B5B"/>
<circle cx="182.274" cy="210.245" r="3.3522" fill="#5B5B5B"/>
<circle cx="182.274" cy="243.767" r="3.3522" fill="#5B5B5B"/>
<circle cx="182.274" cy="277.289" r="3.3522" fill="#5B5B5B"/>
<circle cx="182.274" cy="310.811" r="3.3522" fill="#5B5B5B"/>
<circle cx="182.274" cy="344.333" r="3.3522" fill="#5B5B5B"/>
<circle cx="182.274" cy="377.855" r="3.3522" fill="#5B5B5B"/>
<circle cx="182.274" cy="411.377" r="3.3522" fill="#5B5B5B"/>
<circle cx="182.274" cy="444.899" r="3.3522" fill="#5B5B5B"/>
<circle cx="182.274" cy="478.421" r="3.3522" fill="#5B5B5B"/>
<circle cx="182.274" cy="511.944" r="3.3522" fill="#5B5B5B"/>
<circle cx="182.274" cy="545.465" r="3.3522" fill="#5B5B5B"/>
<circle cx="199.035" cy="9.11319" r="3.3522" fill="#5B5B5B"/>
<circle cx="199.035" cy="42.6352" r="3.3522" fill="#5B5B5B"/>
<circle cx="199.035" cy="76.1571" r="3.3522" fill="#5B5B5B"/>
<circle cx="199.035" cy="109.679" r="3.3522" fill="#5B5B5B"/>
<circle cx="199.035" cy="143.201" r="3.3522" fill="#5B5B5B"/>
<circle cx="199.035" cy="176.723" r="3.3522" fill="#5B5B5B"/>
<circle cx="199.035" cy="210.245" r="3.3522" fill="#5B5B5B"/>
<circle cx="199.035" cy="243.767" r="3.3522" fill="#5B5B5B"/>
<circle cx="199.035" cy="277.289" r="3.3522" fill="#5B5B5B"/>
<circle cx="199.035" cy="310.811" r="3.3522" fill="#5B5B5B"/>
<circle cx="199.035" cy="344.333" r="3.3522" fill="#5B5B5B"/>
<circle cx="199.035" cy="377.855" r="3.3522" fill="#5B5B5B"/>
<circle cx="199.035" cy="411.377" r="3.3522" fill="#5B5B5B"/>
<circle cx="199.035" cy="444.899" r="3.3522" fill="#5B5B5B"/>
<circle cx="199.035" cy="478.421" r="3.3522" fill="#5B5B5B"/>
<circle cx="199.035" cy="511.944" r="3.3522" fill="#5B5B5B"/>
<circle cx="199.035" cy="545.465" r="3.3522" fill="#5B5B5B"/>
<circle cx="215.796" cy="9.11319" r="3.3522" fill="#5B5B5B"/>
<circle cx="215.796" cy="42.6352" r="3.3522" fill="#5B5B5B"/>
<circle cx="215.796" cy="76.1571" r="3.3522" fill="#5B5B5B"/>
<circle cx="215.796" cy="109.679" r="3.3522" fill="#5B5B5B"/>
<circle cx="215.796" cy="143.201" r="3.3522" fill="#5B5B5B"/>
<circle cx="215.796" cy="176.723" r="3.3522" fill="#5B5B5B"/>
<circle cx="215.796" cy="210.245" r="3.3522" fill="#5B5B5B"/>
<circle cx="215.796" cy="243.767" r="3.3522" fill="#5B5B5B"/>
<circle cx="215.796" cy="277.289" r="3.3522" fill="#5B5B5B"/>
<circle cx="215.796" cy="310.811" r="3.3522" fill="#5B5B5B"/>
<circle cx="215.796" cy="344.333" r="3.3522" fill="#5B5B5B"/>
<circle cx="215.796" cy="377.855" r="3.3522" fill="#5B5B5B"/>
<circle cx="215.796" cy="411.377" r="3.3522" fill="#5B5B5B"/>
<circle cx="215.796" cy="444.899" r="3.3522" fill="#5B5B5B"/>
<circle cx="215.796" cy="478.421" r="3.3522" fill="#5B5B5B"/>
<circle cx="215.796" cy="511.944" r="3.3522" fill="#5B5B5B"/>
<circle cx="215.796" cy="545.465" r="3.3522" fill="#5B5B5B"/>
<circle cx="232.557" cy="9.11319" r="3.3522" fill="#5B5B5B"/>
<circle cx="232.557" cy="42.6352" r="3.3522" fill="#5B5B5B"/>
<circle cx="232.557" cy="76.1571" r="3.3522" fill="#5B5B5B"/>
<circle cx="232.557" cy="109.679" r="3.3522" fill="#5B5B5B"/>
<circle cx="232.557" cy="143.201" r="3.3522" fill="#5B5B5B"/>
<circle cx="232.557" cy="176.723" r="3.3522" fill="#5B5B5B"/>
<circle cx="232.557" cy="210.245" r="3.3522" fill="#5B5B5B"/>
<circle cx="232.557" cy="243.767" r="3.3522" fill="#5B5B5B"/>
<circle cx="232.557" cy="277.289" r="3.3522" fill="#5B5B5B"/>
<circle cx="232.557" cy="310.811" r="3.3522" fill="#5B5B5B"/>
<circle cx="232.557" cy="344.333" r="3.3522" fill="#5B5B5B"/>
<circle cx="232.557" cy="377.855" r="3.3522" fill="#5B5B5B"/>
<circle cx="232.557" cy="411.377" r="3.3522" fill="#5B5B5B"/>
<circle cx="232.557" cy="444.899" r="3.3522" fill="#5B5B5B"/>
<circle cx="232.557" cy="478.421" r="3.3522" fill="#5B5B5B"/>
<circle cx="232.557" cy="511.944" r="3.3522" fill="#5B5B5B"/>
<circle cx="232.557" cy="545.465" r="3.3522" fill="#5B5B5B"/>
<circle cx="249.318" cy="9.11319" r="3.3522" fill="#5B5B5B"/>
<circle cx="249.318" cy="42.6352" r="3.3522" fill="#5B5B5B"/>
<circle cx="249.318" cy="76.1571" r="3.3522" fill="#5B5B5B"/>
<circle cx="249.318" cy="109.679" r="3.3522" fill="#5B5B5B"/>
<circle cx="249.318" cy="143.201" r="3.3522" fill="#5B5B5B"/>
<circle cx="249.318" cy="176.723" r="3.3522" fill="#5B5B5B"/>
<circle cx="249.318" cy="210.245" r="3.3522" fill="#5B5B5B"/>
<circle cx="249.318" cy="243.767" r="3.3522" fill="#5B5B5B"/>
<circle cx="249.318" cy="277.289" r="3.3522" fill="#5B5B5B"/>
<circle cx="249.318" cy="310.811" r="3.3522" fill="#5B5B5B"/>
<circle cx="249.318" cy="344.333" r="3.3522" fill="#5B5B5B"/>
<circle cx="249.318" cy="377.855" r="3.3522" fill="#5B5B5B"/>
<circle cx="249.318" cy="411.377" r="3.3522" fill="#5B5B5B"/>
<circle cx="249.318" cy="444.899" r="3.3522" fill="#5B5B5B"/>
<circle cx="249.318" cy="478.421" r="3.3522" fill="#5B5B5B"/>
<circle cx="249.318" cy="511.944" r="3.3522" fill="#5B5B5B"/>
<circle cx="249.318" cy="545.465" r="3.3522" fill="#5B5B5B"/>
<circle cx="266.079" cy="9.11319" r="3.3522" fill="#5B5B5B"/>
<circle cx="266.079" cy="42.6352" r="3.3522" fill="#5B5B5B"/>
<circle cx="266.079" cy="76.1571" r="3.3522" fill="#5B5B5B"/>
<circle cx="266.079" cy="109.679" r="3.3522" fill="#5B5B5B"/>
<circle cx="266.079" cy="143.201" r="3.3522" fill="#5B5B5B"/>
<circle cx="266.079" cy="176.723" r="3.3522" fill="#5B5B5B"/>
<circle cx="266.079" cy="210.245" r="3.3522" fill="#5B5B5B"/>
<circle cx="266.079" cy="243.767" r="3.3522" fill="#5B5B5B"/>
<circle cx="266.079" cy="277.289" r="3.3522" fill="#5B5B5B"/>
<circle cx="266.079" cy="310.811" r="3.3522" fill="#5B5B5B"/>
<circle cx="266.079" cy="344.333" r="3.3522" fill="#5B5B5B"/>
<circle cx="266.079" cy="377.855" r="3.3522" fill="#5B5B5B"/>
<circle cx="266.079" cy="411.377" r="3.3522" fill="#5B5B5B"/>
<circle cx="266.079" cy="444.899" r="3.3522" fill="#5B5B5B"/>
<circle cx="266.079" cy="478.421" r="3.3522" fill="#5B5B5B"/>
<circle cx="266.079" cy="511.944" r="3.3522" fill="#5B5B5B"/>
<circle cx="266.079" cy="545.465" r="3.3522" fill="#5B5B5B"/>
<circle cx="282.84" cy="9.11319" r="3.3522" fill="#5B5B5B"/>
<circle cx="282.84" cy="42.6352" r="3.3522" fill="#5B5B5B"/>
<circle cx="282.84" cy="76.1571" r="3.3522" fill="#5B5B5B"/>
<circle cx="282.84" cy="109.679" r="3.3522" fill="#5B5B5B"/>
<circle cx="282.84" cy="143.201" r="3.3522" fill="#5B5B5B"/>
<circle cx="282.84" cy="176.723" r="3.3522" fill="#5B5B5B"/>
<circle cx="282.84" cy="210.245" r="3.3522" fill="#5B5B5B"/>
<circle cx="282.84" cy="243.767" r="3.3522" fill="#5B5B5B"/>
<circle cx="282.84" cy="277.289" r="3.3522" fill="#5B5B5B"/>
<circle cx="282.84" cy="310.811" r="3.3522" fill="#5B5B5B"/>
<circle cx="282.84" cy="344.333" r="3.3522" fill="#5B5B5B"/>
<circle cx="282.84" cy="377.855" r="3.3522" fill="#5B5B5B"/>
<circle cx="282.84" cy="411.377" r="3.3522" fill="#5B5B5B"/>
<circle cx="282.84" cy="444.899" r="3.3522" fill="#5B5B5B"/>
<circle cx="282.84" cy="478.421" r="3.3522" fill="#5B5B5B"/>
<circle cx="282.84" cy="511.944" r="3.3522" fill="#5B5B5B"/>
<circle cx="282.84" cy="545.465" r="3.3522" fill="#5B5B5B"/>
<circle cx="299.601" cy="9.11319" r="3.3522" fill="#5B5B5B"/>
<circle cx="299.601" cy="42.6352" r="3.3522" fill="#5B5B5B"/>
<circle cx="299.601" cy="76.1571" r="3.3522" fill="#5B5B5B"/>
<circle cx="299.601" cy="109.679" r="3.3522" fill="#5B5B5B"/>
<circle cx="299.601" cy="143.201" r="3.3522" fill="#5B5B5B"/>
<circle cx="299.601" cy="176.723" r="3.3522" fill="#5B5B5B"/>
<circle cx="299.601" cy="210.245" r="3.3522" fill="#5B5B5B"/>
<circle cx="299.601" cy="243.767" r="3.3522" fill="#5B5B5B"/>
<circle cx="299.601" cy="277.289" r="3.3522" fill="#5B5B5B"/>
<circle cx="299.601" cy="310.811" r="3.3522" fill="#5B5B5B"/>
<circle cx="299.601" cy="344.333" r="3.3522" fill="#5B5B5B"/>
<circle cx="299.601" cy="377.855" r="3.3522" fill="#5B5B5B"/>
<circle cx="299.601" cy="411.377" r="3.3522" fill="#5B5B5B"/>
<circle cx="299.601" cy="444.899" r="3.3522" fill="#5B5B5B"/>
<circle cx="299.601" cy="478.421" r="3.3522" fill="#5B5B5B"/>
<circle cx="299.601" cy="511.944" r="3.3522" fill="#5B5B5B"/>
<circle cx="299.601" cy="545.465" r="3.3522" fill="#5B5B5B"/>
<circle cx="316.362" cy="9.11319" r="3.3522" fill="#5B5B5B"/>
<circle cx="316.362" cy="42.6352" r="3.3522" fill="#5B5B5B"/>
<circle cx="316.362" cy="76.1571" r="3.3522" fill="#5B5B5B"/>
<circle cx="316.362" cy="109.679" r="3.3522" fill="#5B5B5B"/>
<circle cx="316.362" cy="143.201" r="3.3522" fill="#5B5B5B"/>
<circle cx="316.362" cy="176.723" r="3.3522" fill="#5B5B5B"/>
<circle cx="316.362" cy="210.245" r="3.3522" fill="#5B5B5B"/>
<circle cx="316.362" cy="243.767" r="3.3522" fill="#5B5B5B"/>
<circle cx="316.362" cy="277.289" r="3.3522" fill="#5B5B5B"/>
<circle cx="316.362" cy="310.811" r="3.3522" fill="#5B5B5B"/>
<circle cx="316.362" cy="344.333" r="3.3522" fill="#5B5B5B"/>
<circle cx="316.362" cy="377.855" r="3.3522" fill="#5B5B5B"/>
<circle cx="316.362" cy="411.377" r="3.3522" fill="#5B5B5B"/>
<circle cx="316.362" cy="444.899" r="3.3522" fill="#5B5B5B"/>
<circle cx="316.362" cy="478.421" r="3.3522" fill="#5B5B5B"/>
<circle cx="316.362" cy="511.944" r="3.3522" fill="#5B5B5B"/>
<circle cx="316.362" cy="545.465" r="3.3522" fill="#5B5B5B"/>
<circle cx="333.123" cy="9.11319" r="3.3522" fill="#5B5B5B"/>
<circle cx="333.123" cy="42.6352" r="3.3522" fill="#5B5B5B"/>
<circle cx="333.123" cy="76.1571" r="3.3522" fill="#5B5B5B"/>
<circle cx="333.123" cy="109.679" r="3.3522" fill="#5B5B5B"/>
<circle cx="333.123" cy="143.201" r="3.3522" fill="#5B5B5B"/>
<circle cx="333.123" cy="176.723" r="3.3522" fill="#5B5B5B"/>
<circle cx="333.123" cy="210.245" r="3.3522" fill="#5B5B5B"/>
<circle cx="333.123" cy="243.767" r="3.3522" fill="#5B5B5B"/>
<circle cx="333.123" cy="277.289" r="3.3522" fill="#5B5B5B"/>
<circle cx="333.123" cy="310.811" r="3.3522" fill="#5B5B5B"/>
<circle cx="333.123" cy="344.333" r="3.3522" fill="#5B5B5B"/>
<circle cx="333.123" cy="377.855" r="3.3522" fill="#5B5B5B"/>
<circle cx="333.123" cy="411.377" r="3.3522" fill="#5B5B5B"/>
<circle cx="333.123" cy="444.899" r="3.3522" fill="#5B5B5B"/>
<circle cx="333.123" cy="478.421" r="3.3522" fill="#5B5B5B"/>
<circle cx="333.123" cy="511.944" r="3.3522" fill="#5B5B5B"/>
<circle cx="333.123" cy="545.465" r="3.3522" fill="#5B5B5B"/>
<circle cx="349.884" cy="9.11319" r="3.3522" fill="#5B5B5B"/>
<circle cx="349.884" cy="42.6352" r="3.3522" fill="#5B5B5B"/>
<circle cx="349.884" cy="76.1571" r="3.3522" fill="#5B5B5B"/>
<circle cx="349.884" cy="109.679" r="3.3522" fill="#5B5B5B"/>
<circle cx="349.884" cy="143.201" r="3.3522" fill="#5B5B5B"/>
<circle cx="349.884" cy="176.723" r="3.3522" fill="#5B5B5B"/>
<circle cx="349.884" cy="210.245" r="3.3522" fill="#5B5B5B"/>
<circle cx="349.884" cy="243.767" r="3.3522" fill="#5B5B5B"/>
<circle cx="349.884" cy="277.289" r="3.3522" fill="#5B5B5B"/>
<circle cx="349.884" cy="310.811" r="3.3522" fill="#5B5B5B"/>
<circle cx="349.884" cy="344.333" r="3.3522" fill="#5B5B5B"/>
<circle cx="349.884" cy="377.855" r="3.3522" fill="#5B5B5B"/>
<circle cx="349.884" cy="411.377" r="3.3522" fill="#5B5B5B"/>
<circle cx="349.884" cy="444.899" r="3.3522" fill="#5B5B5B"/>
<circle cx="349.884" cy="478.421" r="3.3522" fill="#5B5B5B"/>
<circle cx="349.884" cy="511.944" r="3.3522" fill="#5B5B5B"/>
<circle cx="349.884" cy="545.465" r="3.3522" fill="#5B5B5B"/>
<circle cx="366.645" cy="9.11319" r="3.3522" fill="#5B5B5B"/>
<circle cx="366.645" cy="42.6352" r="3.3522" fill="#5B5B5B"/>
<circle cx="366.645" cy="76.1571" r="3.3522" fill="#5B5B5B"/>
<circle cx="366.645" cy="109.679" r="3.3522" fill="#5B5B5B"/>
<circle cx="366.645" cy="143.201" r="3.3522" fill="#5B5B5B"/>
<circle cx="366.645" cy="176.723" r="3.3522" fill="#5B5B5B"/>
<circle cx="366.645" cy="210.245" r="3.3522" fill="#5B5B5B"/>
<circle cx="366.645" cy="243.767" r="3.3522" fill="#5B5B5B"/>
<circle cx="366.645" cy="277.289" r="3.3522" fill="#5B5B5B"/>
<circle cx="366.645" cy="310.811" r="3.3522" fill="#5B5B5B"/>
<circle cx="366.645" cy="344.333" r="3.3522" fill="#5B5B5B"/>
<circle cx="366.645" cy="377.855" r="3.3522" fill="#5B5B5B"/>
<circle cx="366.645" cy="411.377" r="3.3522" fill="#5B5B5B"/>
<circle cx="366.645" cy="444.899" r="3.3522" fill="#5B5B5B"/>
<circle cx="366.645" cy="478.421" r="3.3522" fill="#5B5B5B"/>
<circle cx="366.645" cy="511.944" r="3.3522" fill="#5B5B5B"/>
<circle cx="366.645" cy="545.465" r="3.3522" fill="#5B5B5B"/>
<circle cx="383.406" cy="9.11319" r="3.3522" fill="#5B5B5B"/>
<circle cx="383.406" cy="42.6352" r="3.3522" fill="#5B5B5B"/>
<circle cx="383.406" cy="76.1571" r="3.3522" fill="#5B5B5B"/>
<circle cx="383.406" cy="109.679" r="3.3522" fill="#5B5B5B"/>
<circle cx="383.406" cy="143.201" r="3.3522" fill="#5B5B5B"/>
<circle cx="383.406" cy="176.723" r="3.3522" fill="#5B5B5B"/>
<circle cx="383.406" cy="210.245" r="3.3522" fill="#5B5B5B"/>
<circle cx="383.406" cy="243.767" r="3.3522" fill="#5B5B5B"/>
<circle cx="383.406" cy="277.289" r="3.3522" fill="#5B5B5B"/>
<circle cx="383.406" cy="310.811" r="3.3522" fill="#5B5B5B"/>
<circle cx="383.406" cy="344.333" r="3.3522" fill="#5B5B5B"/>
<circle cx="383.406" cy="377.855" r="3.3522" fill="#5B5B5B"/>
<circle cx="383.406" cy="411.377" r="3.3522" fill="#5B5B5B"/>
<circle cx="383.406" cy="444.899" r="3.3522" fill="#5B5B5B"/>
<circle cx="383.406" cy="478.421" r="3.3522" fill="#5B5B5B"/>
<circle cx="383.406" cy="511.944" r="3.3522" fill="#5B5B5B"/>
<circle cx="383.406" cy="545.465" r="3.3522" fill="#5B5B5B"/>
<circle cx="400.167" cy="9.11319" r="3.3522" fill="#5B5B5B"/>
<circle cx="400.167" cy="42.6352" r="3.3522" fill="#5B5B5B"/>
<circle cx="400.167" cy="76.1571" r="3.3522" fill="#5B5B5B"/>
<circle cx="400.167" cy="109.679" r="3.3522" fill="#5B5B5B"/>
<circle cx="400.167" cy="143.201" r="3.3522" fill="#5B5B5B"/>
<circle cx="400.167" cy="176.723" r="3.3522" fill="#5B5B5B"/>
<circle cx="400.167" cy="210.245" r="3.3522" fill="#5B5B5B"/>
<circle cx="400.167" cy="243.767" r="3.3522" fill="#5B5B5B"/>
<circle cx="400.167" cy="277.289" r="3.3522" fill="#5B5B5B"/>
<circle cx="400.167" cy="310.811" r="3.3522" fill="#5B5B5B"/>
<circle cx="400.167" cy="344.333" r="3.3522" fill="#5B5B5B"/>
<circle cx="400.167" cy="377.855" r="3.3522" fill="#5B5B5B"/>
<circle cx="400.167" cy="411.377" r="3.3522" fill="#5B5B5B"/>
<circle cx="400.167" cy="444.899" r="3.3522" fill="#5B5B5B"/>
<circle cx="400.167" cy="478.421" r="3.3522" fill="#5B5B5B"/>
<circle cx="400.167" cy="511.944" r="3.3522" fill="#5B5B5B"/>
<circle cx="400.167" cy="545.465" r="3.3522" fill="#5B5B5B"/>
<circle cx="416.928" cy="9.11319" r="3.3522" fill="#5B5B5B"/>
<circle cx="416.928" cy="42.6352" r="3.3522" fill="#5B5B5B"/>
<circle cx="416.928" cy="76.1571" r="3.3522" fill="#5B5B5B"/>
<circle cx="416.928" cy="109.679" r="3.3522" fill="#5B5B5B"/>
<circle cx="416.928" cy="143.201" r="3.3522" fill="#5B5B5B"/>
<circle cx="416.928" cy="176.723" r="3.3522" fill="#5B5B5B"/>
<circle cx="416.928" cy="210.245" r="3.3522" fill="#5B5B5B"/>
<circle cx="416.928" cy="243.767" r="3.3522" fill="#5B5B5B"/>
<circle cx="416.928" cy="277.289" r="3.3522" fill="#5B5B5B"/>
<circle cx="416.928" cy="310.811" r="3.3522" fill="#5B5B5B"/>
<circle cx="416.928" cy="344.333" r="3.3522" fill="#5B5B5B"/>
<circle cx="416.928" cy="377.855" r="3.3522" fill="#5B5B5B"/>
<circle cx="416.928" cy="411.377" r="3.3522" fill="#5B5B5B"/>
<circle cx="416.928" cy="444.899" r="3.3522" fill="#5B5B5B"/>
<circle cx="416.928" cy="478.421" r="3.3522" fill="#5B5B5B"/>
<circle cx="416.928" cy="511.944" r="3.3522" fill="#5B5B5B"/>
<circle cx="416.928" cy="545.465" r="3.3522" fill="#5B5B5B"/>
<circle cx="433.689" cy="9.11319" r="3.3522" fill="#5B5B5B"/>
<circle cx="433.689" cy="42.6352" r="3.3522" fill="#5B5B5B"/>
<circle cx="433.689" cy="76.1571" r="3.3522" fill="#5B5B5B"/>
<circle cx="433.689" cy="109.679" r="3.3522" fill="#5B5B5B"/>
<circle cx="433.689" cy="143.201" r="3.3522" fill="#5B5B5B"/>
<circle cx="433.689" cy="176.723" r="3.3522" fill="#5B5B5B"/>
<circle cx="433.689" cy="210.245" r="3.3522" fill="#5B5B5B"/>
<circle cx="433.689" cy="243.767" r="3.3522" fill="#5B5B5B"/>
<circle cx="433.689" cy="277.289" r="3.3522" fill="#5B5B5B"/>
<circle cx="433.689" cy="310.811" r="3.3522" fill="#5B5B5B"/>
<circle cx="433.689" cy="344.333" r="3.3522" fill="#5B5B5B"/>
<circle cx="433.689" cy="377.855" r="3.3522" fill="#5B5B5B"/>
<circle cx="433.689" cy="411.377" r="3.3522" fill="#5B5B5B"/>
<circle cx="433.689" cy="444.899" r="3.3522" fill="#5B5B5B"/>
<circle cx="433.689" cy="478.421" r="3.3522" fill="#5B5B5B"/>
<circle cx="433.689" cy="511.944" r="3.3522" fill="#5B5B5B"/>
<circle cx="433.689" cy="545.465" r="3.3522" fill="#5B5B5B"/>
<circle cx="450.45" cy="9.11319" r="3.3522" fill="#5B5B5B"/>
<circle cx="450.45" cy="42.6352" r="3.3522" fill="#5B5B5B"/>
<circle cx="450.45" cy="76.1571" r="3.3522" fill="#5B5B5B"/>
<circle cx="450.45" cy="109.679" r="3.3522" fill="#5B5B5B"/>
<circle cx="450.45" cy="143.201" r="3.3522" fill="#5B5B5B"/>
<circle cx="450.45" cy="176.723" r="3.3522" fill="#5B5B5B"/>
<circle cx="450.45" cy="210.245" r="3.3522" fill="#5B5B5B"/>
<circle cx="450.45" cy="243.767" r="3.3522" fill="#5B5B5B"/>
<circle cx="450.45" cy="277.289" r="3.3522" fill="#5B5B5B"/>
<circle cx="450.45" cy="310.811" r="3.3522" fill="#5B5B5B"/>
<circle cx="450.45" cy="344.333" r="3.3522" fill="#5B5B5B"/>
<circle cx="450.45" cy="377.855" r="3.3522" fill="#5B5B5B"/>
<circle cx="450.45" cy="411.377" r="3.3522" fill="#5B5B5B"/>
<circle cx="450.45" cy="444.899" r="3.3522" fill="#5B5B5B"/>
<circle cx="450.45" cy="478.421" r="3.3522" fill="#5B5B5B"/>
<circle cx="450.45" cy="511.944" r="3.3522" fill="#5B5B5B"/>
<circle cx="450.45" cy="545.465" r="3.3522" fill="#5B5B5B"/>
<circle cx="467.211" cy="9.11319" r="3.3522" fill="#5B5B5B"/>
<circle cx="467.211" cy="42.6352" r="3.3522" fill="#5B5B5B"/>
<circle cx="467.211" cy="76.1571" r="3.3522" fill="#5B5B5B"/>
<circle cx="467.211" cy="109.679" r="3.3522" fill="#5B5B5B"/>
<circle cx="467.211" cy="143.201" r="3.3522" fill="#5B5B5B"/>
<circle cx="467.211" cy="176.723" r="3.3522" fill="#5B5B5B"/>
<circle cx="467.211" cy="210.245" r="3.3522" fill="#5B5B5B"/>
<circle cx="467.211" cy="243.767" r="3.3522" fill="#5B5B5B"/>
<circle cx="467.211" cy="277.289" r="3.3522" fill="#5B5B5B"/>
<circle cx="467.211" cy="310.811" r="3.3522" fill="#5B5B5B"/>
<circle cx="467.211" cy="344.333" r="3.3522" fill="#5B5B5B"/>
<circle cx="467.211" cy="377.855" r="3.3522" fill="#5B5B5B"/>
<circle cx="467.211" cy="411.377" r="3.3522" fill="#5B5B5B"/>
<circle cx="467.211" cy="444.899" r="3.3522" fill="#5B5B5B"/>
<circle cx="467.211" cy="478.421" r="3.3522" fill="#5B5B5B"/>
<circle cx="467.211" cy="511.944" r="3.3522" fill="#5B5B5B"/>
<circle cx="467.211" cy="545.465" r="3.3522" fill="#5B5B5B"/>
<circle cx="483.972" cy="9.11319" r="3.3522" fill="#5B5B5B"/>
<circle cx="483.972" cy="42.6352" r="3.3522" fill="#5B5B5B"/>
<circle cx="483.972" cy="76.1571" r="3.3522" fill="#5B5B5B"/>
<circle cx="483.972" cy="109.679" r="3.3522" fill="#5B5B5B"/>
<circle cx="483.972" cy="143.201" r="3.3522" fill="#5B5B5B"/>
<circle cx="483.972" cy="176.723" r="3.3522" fill="#5B5B5B"/>
<circle cx="483.972" cy="210.245" r="3.3522" fill="#5B5B5B"/>
<circle cx="483.972" cy="243.767" r="3.3522" fill="#5B5B5B"/>
<circle cx="483.972" cy="277.289" r="3.3522" fill="#5B5B5B"/>
<circle cx="483.972" cy="310.811" r="3.3522" fill="#5B5B5B"/>
<circle cx="483.972" cy="344.333" r="3.3522" fill="#5B5B5B"/>
<circle cx="483.972" cy="377.855" r="3.3522" fill="#5B5B5B"/>
<circle cx="483.972" cy="411.377" r="3.3522" fill="#5B5B5B"/>
<circle cx="483.972" cy="444.899" r="3.3522" fill="#5B5B5B"/>
<circle cx="483.972" cy="478.421" r="3.3522" fill="#5B5B5B"/>
<circle cx="483.972" cy="511.944" r="3.3522" fill="#5B5B5B"/>
<circle cx="483.972" cy="545.465" r="3.3522" fill="#5B5B5B"/>
<circle cx="500.733" cy="9.11319" r="3.3522" fill="#5B5B5B"/>
<circle cx="500.733" cy="42.6352" r="3.3522" fill="#5B5B5B"/>
<circle cx="500.733" cy="76.1571" r="3.3522" fill="#5B5B5B"/>
<circle cx="500.733" cy="109.679" r="3.3522" fill="#5B5B5B"/>
<circle cx="500.733" cy="143.201" r="3.3522" fill="#5B5B5B"/>
<circle cx="500.733" cy="176.723" r="3.3522" fill="#5B5B5B"/>
<circle cx="500.733" cy="210.245" r="3.3522" fill="#5B5B5B"/>
<circle cx="500.733" cy="243.767" r="3.3522" fill="#5B5B5B"/>
<circle cx="500.733" cy="277.289" r="3.3522" fill="#5B5B5B"/>
<circle cx="500.733" cy="310.811" r="3.3522" fill="#5B5B5B"/>
<circle cx="500.733" cy="344.333" r="3.3522" fill="#5B5B5B"/>
<circle cx="500.733" cy="377.855" r="3.3522" fill="#5B5B5B"/>
<circle cx="500.733" cy="411.377" r="3.3522" fill="#5B5B5B"/>
<circle cx="500.733" cy="444.899" r="3.3522" fill="#5B5B5B"/>
<circle cx="500.733" cy="478.421" r="3.3522" fill="#5B5B5B"/>
<circle cx="500.733" cy="511.944" r="3.3522" fill="#5B5B5B"/>
<circle cx="500.733" cy="545.465" r="3.3522" fill="#5B5B5B"/>
<circle cx="517.494" cy="9.11319" r="3.3522" fill="#5B5B5B"/>
<circle cx="517.494" cy="42.6352" r="3.3522" fill="#5B5B5B"/>
<circle cx="517.494" cy="76.1571" r="3.3522" fill="#5B5B5B"/>
<circle cx="517.494" cy="109.679" r="3.3522" fill="#5B5B5B"/>
<circle cx="517.494" cy="143.201" r="3.3522" fill="#5B5B5B"/>
<circle cx="517.494" cy="176.723" r="3.3522" fill="#5B5B5B"/>
<circle cx="517.494" cy="210.245" r="3.3522" fill="#5B5B5B"/>
<circle cx="517.494" cy="243.767" r="3.3522" fill="#5B5B5B"/>
<circle cx="517.494" cy="277.289" r="3.3522" fill="#5B5B5B"/>
<circle cx="517.494" cy="310.811" r="3.3522" fill="#5B5B5B"/>
<circle cx="517.494" cy="344.333" r="3.3522" fill="#5B5B5B"/>
<circle cx="517.494" cy="377.855" r="3.3522" fill="#5B5B5B"/>
<circle cx="517.494" cy="411.377" r="3.3522" fill="#5B5B5B"/>
<circle cx="517.494" cy="444.899" r="3.3522" fill="#5B5B5B"/>
<circle cx="517.494" cy="478.421" r="3.3522" fill="#5B5B5B"/>
<circle cx="517.494" cy="511.944" r="3.3522" fill="#5B5B5B"/>
<circle cx="517.494" cy="545.465" r="3.3522" fill="#5B5B5B"/>
<circle cx="529.352" cy="25.8742" r="3.3522" fill="#5B5B5B"/>
<circle cx="529.352" cy="59.3961" r="3.3522" fill="#5B5B5B"/>
<circle cx="529.352" cy="92.9181" r="3.3522" fill="#5B5B5B"/>
<circle cx="529.352" cy="126.44" r="3.3522" fill="#5B5B5B"/>
<circle cx="529.352" cy="159.962" r="3.3522" fill="#5B5B5B"/>
<circle cx="529.352" cy="193.484" r="3.3522" fill="#5B5B5B"/>
<circle cx="529.352" cy="227.006" r="3.3522" fill="#5B5B5B"/>
<circle cx="529.352" cy="260.528" r="3.3522" fill="#5B5B5B"/>
<circle cx="529.352" cy="294.05" r="3.3522" fill="#5B5B5B"/>
<circle cx="529.352" cy="327.572" r="3.3522" fill="#5B5B5B"/>
<circle cx="529.352" cy="361.094" r="3.3522" fill="#5B5B5B"/>
<circle cx="529.352" cy="394.616" r="3.3522" fill="#5B5B5B"/>
<circle cx="529.352" cy="428.138" r="3.3522" fill="#5B5B5B"/>
<circle cx="529.352" cy="461.66" r="3.3522" fill="#5B5B5B"/>
<circle cx="529.352" cy="495.182" r="3.3522" fill="#5B5B5B"/>
<circle cx="529.352" cy="528.704" r="3.3522" fill="#5B5B5B"/>
<circle cx="546.113" cy="25.8742" r="3.3522" fill="#5B5B5B"/>
<circle cx="546.113" cy="59.3961" r="3.3522" fill="#5B5B5B"/>
<circle cx="546.113" cy="92.9181" r="3.3522" fill="#5B5B5B"/>
<circle cx="546.113" cy="126.44" r="3.3522" fill="#5B5B5B"/>
<circle cx="546.113" cy="159.962" r="3.3522" fill="#5B5B5B"/>
<circle cx="546.113" cy="193.484" r="3.3522" fill="#5B5B5B"/>
<circle cx="546.113" cy="227.006" r="3.3522" fill="#5B5B5B"/>
<circle cx="546.113" cy="260.528" r="3.3522" fill="#5B5B5B"/>
<circle cx="546.113" cy="294.05" r="3.3522" fill="#5B5B5B"/>
<circle cx="546.113" cy="327.572" r="3.3522" fill="#5B5B5B"/>
<circle cx="546.113" cy="361.094" r="3.3522" fill="#5B5B5B"/>
<circle cx="546.113" cy="394.616" r="3.3522" fill="#5B5B5B"/>
<circle cx="546.113" cy="428.138" r="3.3522" fill="#5B5B5B"/>
<circle cx="546.113" cy="461.66" r="3.3522" fill="#5B5B5B"/>
<circle cx="546.113" cy="495.182" r="3.3522" fill="#5B5B5B"/>
<circle cx="546.113" cy="528.704" r="3.3522" fill="#5B5B5B"/>
<circle cx="562.874" cy="25.8742" r="3.3522" fill="#5B5B5B"/>
<circle cx="562.874" cy="59.3961" r="3.3522" fill="#5B5B5B"/>
<circle cx="562.874" cy="92.9181" r="3.3522" fill="#5B5B5B"/>
<circle cx="562.874" cy="126.44" r="3.3522" fill="#5B5B5B"/>
<circle cx="562.874" cy="159.962" r="3.3522" fill="#5B5B5B"/>
<circle cx="562.874" cy="193.484" r="3.3522" fill="#5B5B5B"/>
<circle cx="562.874" cy="227.006" r="3.3522" fill="#5B5B5B"/>
<circle cx="562.874" cy="260.528" r="3.3522" fill="#5B5B5B"/>
<circle cx="562.874" cy="294.05" r="3.3522" fill="#5B5B5B"/>
<circle cx="562.874" cy="327.572" r="3.3522" fill="#5B5B5B"/>
<circle cx="562.874" cy="361.094" r="3.3522" fill="#5B5B5B"/>
<circle cx="562.874" cy="394.616" r="3.3522" fill="#5B5B5B"/>
<circle cx="562.874" cy="428.138" r="3.3522" fill="#5B5B5B"/>
<circle cx="562.874" cy="461.66" r="3.3522" fill="#5B5B5B"/>
<circle cx="562.874" cy="495.182" r="3.3522" fill="#5B5B5B"/>
<circle cx="562.874" cy="528.704" r="3.3522" fill="#5B5B5B"/>
<circle cx="579.635" cy="25.8742" r="3.3522" fill="#5B5B5B"/>
<circle cx="579.635" cy="59.3961" r="3.3522" fill="#5B5B5B"/>
<circle cx="579.635" cy="92.9181" r="3.3522" fill="#5B5B5B"/>
<circle cx="579.635" cy="126.44" r="3.3522" fill="#5B5B5B"/>
<circle cx="579.635" cy="159.962" r="3.3522" fill="#5B5B5B"/>
<circle cx="579.635" cy="193.484" r="3.3522" fill="#5B5B5B"/>
<circle cx="579.635" cy="227.006" r="3.3522" fill="#5B5B5B"/>
<circle cx="579.635" cy="260.528" r="3.3522" fill="#5B5B5B"/>
<circle cx="579.635" cy="294.05" r="3.3522" fill="#5B5B5B"/>
<circle cx="579.635" cy="327.572" r="3.3522" fill="#5B5B5B"/>
<circle cx="579.635" cy="361.094" r="3.3522" fill="#5B5B5B"/>
<circle cx="579.635" cy="394.616" r="3.3522" fill="#5B5B5B"/>
<circle cx="579.635" cy="428.138" r="3.3522" fill="#5B5B5B"/>
<circle cx="579.635" cy="461.66" r="3.3522" fill="#5B5B5B"/>
<circle cx="579.635" cy="495.182" r="3.3522" fill="#5B5B5B"/>
<circle cx="579.635" cy="528.704" r="3.3522" fill="#5B5B5B"/>
<circle cx="596.396" cy="25.8742" r="3.3522" fill="#5B5B5B"/>
<circle cx="596.396" cy="59.3961" r="3.3522" fill="#5B5B5B"/>
<circle cx="596.396" cy="92.9181" r="3.3522" fill="#5B5B5B"/>
<circle cx="596.396" cy="126.44" r="3.3522" fill="#5B5B5B"/>
<circle cx="596.396" cy="159.962" r="3.3522" fill="#5B5B5B"/>
<circle cx="596.396" cy="193.484" r="3.3522" fill="#5B5B5B"/>
<circle cx="596.396" cy="227.006" r="3.3522" fill="#5B5B5B"/>
<circle cx="596.396" cy="260.528" r="3.3522" fill="#5B5B5B"/>
<circle cx="596.396" cy="294.05" r="3.3522" fill="#5B5B5B"/>
<circle cx="596.396" cy="327.572" r="3.3522" fill="#5B5B5B"/>
<circle cx="596.396" cy="361.094" r="3.3522" fill="#5B5B5B"/>
<circle cx="596.396" cy="394.616" r="3.3522" fill="#5B5B5B"/>
<circle cx="596.396" cy="428.138" r="3.3522" fill="#5B5B5B"/>
<circle cx="596.396" cy="461.66" r="3.3522" fill="#5B5B5B"/>
<circle cx="596.396" cy="495.182" r="3.3522" fill="#5B5B5B"/>
<circle cx="596.396" cy="528.704" r="3.3522" fill="#5B5B5B"/>
<circle cx="613.157" cy="25.8742" r="3.3522" fill="#5B5B5B"/>
<circle cx="613.157" cy="59.3961" r="3.3522" fill="#5B5B5B"/>
<circle cx="613.157" cy="92.9181" r="3.3522" fill="#5B5B5B"/>
<circle cx="613.157" cy="126.44" r="3.3522" fill="#5B5B5B"/>
<circle cx="613.157" cy="159.962" r="3.3522" fill="#5B5B5B"/>
<circle cx="613.157" cy="193.484" r="3.3522" fill="#5B5B5B"/>
<circle cx="613.157" cy="227.006" r="3.3522" fill="#5B5B5B"/>
<circle cx="613.157" cy="260.528" r="3.3522" fill="#5B5B5B"/>
<circle cx="613.157" cy="294.05" r="3.3522" fill="#5B5B5B"/>
<circle cx="613.157" cy="327.572" r="3.3522" fill="#5B5B5B"/>
<circle cx="613.157" cy="361.094" r="3.3522" fill="#5B5B5B"/>
<circle cx="613.157" cy="394.616" r="3.3522" fill="#5B5B5B"/>
<circle cx="613.157" cy="428.138" r="3.3522" fill="#5B5B5B"/>
<circle cx="613.157" cy="461.66" r="3.3522" fill="#5B5B5B"/>
<circle cx="613.157" cy="495.182" r="3.3522" fill="#5B5B5B"/>
<circle cx="613.157" cy="528.704" r="3.3522" fill="#5B5B5B"/>
<circle cx="629.918" cy="25.8742" r="3.3522" fill="#5B5B5B"/>
<circle cx="629.918" cy="59.3961" r="3.3522" fill="#5B5B5B"/>
<circle cx="629.918" cy="92.9181" r="3.3522" fill="#5B5B5B"/>
<circle cx="629.918" cy="126.44" r="3.3522" fill="#5B5B5B"/>
<circle cx="629.918" cy="159.962" r="3.3522" fill="#5B5B5B"/>
<circle cx="629.918" cy="193.484" r="3.3522" fill="#5B5B5B"/>
<circle cx="629.918" cy="227.006" r="3.3522" fill="#5B5B5B"/>
<circle cx="629.918" cy="260.528" r="3.3522" fill="#5B5B5B"/>
<circle cx="629.918" cy="294.05" r="3.3522" fill="#5B5B5B"/>
<circle cx="629.918" cy="327.572" r="3.3522" fill="#5B5B5B"/>
<circle cx="629.918" cy="361.094" r="3.3522" fill="#5B5B5B"/>
<circle cx="629.918" cy="394.616" r="3.3522" fill="#5B5B5B"/>
<circle cx="629.918" cy="428.138" r="3.3522" fill="#5B5B5B"/>
<circle cx="629.918" cy="461.66" r="3.3522" fill="#5B5B5B"/>
<circle cx="629.918" cy="495.182" r="3.3522" fill="#5B5B5B"/>
<circle cx="629.918" cy="528.704" r="3.3522" fill="#5B5B5B"/>
<circle cx="646.679" cy="25.8742" r="3.3522" fill="#5B5B5B"/>
<circle cx="646.679" cy="59.3961" r="3.3522" fill="#5B5B5B"/>
<circle cx="646.679" cy="92.9181" r="3.3522" fill="#5B5B5B"/>
<circle cx="646.679" cy="126.44" r="3.3522" fill="#5B5B5B"/>
<circle cx="646.679" cy="159.962" r="3.3522" fill="#5B5B5B"/>
<circle cx="646.679" cy="193.484" r="3.3522" fill="#5B5B5B"/>
<circle cx="646.679" cy="227.006" r="3.3522" fill="#5B5B5B"/>
<circle cx="646.679" cy="260.528" r="3.3522" fill="#5B5B5B"/>
<circle cx="646.679" cy="294.05" r="3.3522" fill="#5B5B5B"/>
<circle cx="646.679" cy="327.572" r="3.3522" fill="#5B5B5B"/>
<circle cx="646.679" cy="361.094" r="3.3522" fill="#5B5B5B"/>
<circle cx="646.679" cy="394.616" r="3.3522" fill="#5B5B5B"/>
<circle cx="646.679" cy="428.138" r="3.3522" fill="#5B5B5B"/>
<circle cx="646.679" cy="461.66" r="3.3522" fill="#5B5B5B"/>
<circle cx="646.679" cy="495.182" r="3.3522" fill="#5B5B5B"/>
<circle cx="646.679" cy="528.704" r="3.3522" fill="#5B5B5B"/>
<circle cx="663.44" cy="25.8742" r="3.3522" fill="#5B5B5B"/>
<circle cx="663.44" cy="59.3961" r="3.3522" fill="#5B5B5B"/>
<circle cx="663.44" cy="92.9181" r="3.3522" fill="#5B5B5B"/>
<circle cx="663.44" cy="126.44" r="3.3522" fill="#5B5B5B"/>
<circle cx="663.44" cy="159.962" r="3.3522" fill="#5B5B5B"/>
<circle cx="663.44" cy="193.484" r="3.3522" fill="#5B5B5B"/>
<circle cx="663.44" cy="227.006" r="3.3522" fill="#5B5B5B"/>
<circle cx="663.44" cy="260.528" r="3.3522" fill="#5B5B5B"/>
<circle cx="663.44" cy="294.05" r="3.3522" fill="#5B5B5B"/>
<circle cx="663.44" cy="327.572" r="3.3522" fill="#5B5B5B"/>
<circle cx="663.44" cy="361.094" r="3.3522" fill="#5B5B5B"/>
<circle cx="663.44" cy="394.616" r="3.3522" fill="#5B5B5B"/>
<circle cx="663.44" cy="428.138" r="3.3522" fill="#5B5B5B"/>
<circle cx="663.44" cy="461.66" r="3.3522" fill="#5B5B5B"/>
<circle cx="663.44" cy="495.182" r="3.3522" fill="#5B5B5B"/>
<circle cx="663.44" cy="528.704" r="3.3522" fill="#5B5B5B"/>
<circle cx="680.201" cy="25.8742" r="3.3522" fill="#5B5B5B"/>
<circle cx="680.201" cy="59.3961" r="3.3522" fill="#5B5B5B"/>
<circle cx="680.201" cy="92.9181" r="3.3522" fill="#5B5B5B"/>
<circle cx="680.201" cy="126.44" r="3.3522" fill="#5B5B5B"/>
<circle cx="680.201" cy="159.962" r="3.3522" fill="#5B5B5B"/>
<circle cx="680.201" cy="193.484" r="3.3522" fill="#5B5B5B"/>
<circle cx="680.201" cy="227.006" r="3.3522" fill="#5B5B5B"/>
<circle cx="680.201" cy="260.528" r="3.3522" fill="#5B5B5B"/>
<circle cx="680.201" cy="294.05" r="3.3522" fill="#5B5B5B"/>
<circle cx="680.201" cy="327.572" r="3.3522" fill="#5B5B5B"/>
<circle cx="680.201" cy="361.094" r="3.3522" fill="#5B5B5B"/>
<circle cx="680.201" cy="394.616" r="3.3522" fill="#5B5B5B"/>
<circle cx="680.201" cy="428.138" r="3.3522" fill="#5B5B5B"/>
<circle cx="680.201" cy="461.66" r="3.3522" fill="#5B5B5B"/>
<circle cx="680.201" cy="495.182" r="3.3522" fill="#5B5B5B"/>
<circle cx="680.201" cy="528.704" r="3.3522" fill="#5B5B5B"/>
<circle cx="696.962" cy="25.8742" r="3.3522" fill="#5B5B5B"/>
<circle cx="696.962" cy="59.3961" r="3.3522" fill="#5B5B5B"/>
<circle cx="696.962" cy="92.9181" r="3.3522" fill="#5B5B5B"/>
<circle cx="696.962" cy="126.44" r="3.3522" fill="#5B5B5B"/>
<circle cx="696.962" cy="159.962" r="3.3522" fill="#5B5B5B"/>
<circle cx="696.962" cy="193.484" r="3.3522" fill="#5B5B5B"/>
<circle cx="696.962" cy="227.006" r="3.3522" fill="#5B5B5B"/>
<circle cx="696.962" cy="260.528" r="3.3522" fill="#5B5B5B"/>
<circle cx="696.962" cy="294.05" r="3.3522" fill="#5B5B5B"/>
<circle cx="696.962" cy="327.572" r="3.3522" fill="#5B5B5B"/>
<circle cx="696.962" cy="361.094" r="3.3522" fill="#5B5B5B"/>
<circle cx="696.962" cy="394.616" r="3.3522" fill="#5B5B5B"/>
<circle cx="696.962" cy="428.138" r="3.3522" fill="#5B5B5B"/>
<circle cx="696.962" cy="461.66" r="3.3522" fill="#5B5B5B"/>
<circle cx="696.962" cy="495.182" r="3.3522" fill="#5B5B5B"/>
<circle cx="696.962" cy="528.704" r="3.3522" fill="#5B5B5B"/>
<circle cx="713.723" cy="25.8742" r="3.3522" fill="#5B5B5B"/>
<circle cx="713.723" cy="59.3961" r="3.3522" fill="#5B5B5B"/>
<circle cx="713.723" cy="92.9181" r="3.3522" fill="#5B5B5B"/>
<circle cx="713.723" cy="126.44" r="3.3522" fill="#5B5B5B"/>
<circle cx="713.723" cy="159.962" r="3.3522" fill="#5B5B5B"/>
<circle cx="713.723" cy="193.484" r="3.3522" fill="#5B5B5B"/>
<circle cx="713.723" cy="227.006" r="3.3522" fill="#5B5B5B"/>
<circle cx="713.723" cy="260.528" r="3.3522" fill="#5B5B5B"/>
<circle cx="713.723" cy="294.05" r="3.3522" fill="#5B5B5B"/>
<circle cx="713.723" cy="327.572" r="3.3522" fill="#5B5B5B"/>
<circle cx="713.723" cy="361.094" r="3.3522" fill="#5B5B5B"/>
<circle cx="713.723" cy="394.616" r="3.3522" fill="#5B5B5B"/>
<circle cx="713.723" cy="428.138" r="3.3522" fill="#5B5B5B"/>
<circle cx="713.723" cy="461.66" r="3.3522" fill="#5B5B5B"/>
<circle cx="713.723" cy="495.182" r="3.3522" fill="#5B5B5B"/>
<circle cx="713.723" cy="528.704" r="3.3522" fill="#5B5B5B"/>
<circle cx="730.484" cy="25.8742" r="3.3522" fill="#5B5B5B"/>
<circle cx="730.484" cy="59.3961" r="3.3522" fill="#5B5B5B"/>
<circle cx="730.484" cy="92.9181" r="3.3522" fill="#5B5B5B"/>
<circle cx="730.484" cy="126.44" r="3.3522" fill="#5B5B5B"/>
<circle cx="730.484" cy="159.962" r="3.3522" fill="#5B5B5B"/>
<circle cx="730.484" cy="193.484" r="3.3522" fill="#5B5B5B"/>
<circle cx="730.484" cy="227.006" r="3.3522" fill="#5B5B5B"/>
<circle cx="730.484" cy="260.528" r="3.3522" fill="#5B5B5B"/>
<circle cx="730.484" cy="294.05" r="3.3522" fill="#5B5B5B"/>
<circle cx="730.484" cy="327.572" r="3.3522" fill="#5B5B5B"/>
<circle cx="730.484" cy="361.094" r="3.3522" fill="#5B5B5B"/>
<circle cx="730.484" cy="394.616" r="3.3522" fill="#5B5B5B"/>
<circle cx="730.484" cy="428.138" r="3.3522" fill="#5B5B5B"/>
<circle cx="730.484" cy="461.66" r="3.3522" fill="#5B5B5B"/>
<circle cx="730.484" cy="495.182" r="3.3522" fill="#5B5B5B"/>
<circle cx="730.484" cy="528.704" r="3.3522" fill="#5B5B5B"/>
<circle cx="747.245" cy="25.8742" r="3.3522" fill="#5B5B5B"/>
<circle cx="747.245" cy="59.3961" r="3.3522" fill="#5B5B5B"/>
<circle cx="747.245" cy="92.9181" r="3.3522" fill="#5B5B5B"/>
<circle cx="747.245" cy="126.44" r="3.3522" fill="#5B5B5B"/>
<circle cx="747.245" cy="159.962" r="3.3522" fill="#5B5B5B"/>
<circle cx="747.245" cy="193.484" r="3.3522" fill="#5B5B5B"/>
<circle cx="747.245" cy="227.006" r="3.3522" fill="#5B5B5B"/>
<circle cx="747.245" cy="260.528" r="3.3522" fill="#5B5B5B"/>
<circle cx="747.245" cy="294.05" r="3.3522" fill="#5B5B5B"/>
<circle cx="747.245" cy="327.572" r="3.3522" fill="#5B5B5B"/>
<circle cx="747.245" cy="361.094" r="3.3522" fill="#5B5B5B"/>
<circle cx="747.245" cy="394.616" r="3.3522" fill="#5B5B5B"/>
<circle cx="747.245" cy="428.138" r="3.3522" fill="#5B5B5B"/>
<circle cx="747.245" cy="461.66" r="3.3522" fill="#5B5B5B"/>
<circle cx="747.245" cy="495.182" r="3.3522" fill="#5B5B5B"/>
<circle cx="747.245" cy="528.704" r="3.3522" fill="#5B5B5B"/>
<circle cx="764.006" cy="25.8742" r="3.3522" fill="#5B5B5B"/>
<circle cx="764.006" cy="59.3961" r="3.3522" fill="#5B5B5B"/>
<circle cx="764.006" cy="92.9181" r="3.3522" fill="#5B5B5B"/>
<circle cx="764.006" cy="126.44" r="3.3522" fill="#5B5B5B"/>
<circle cx="764.006" cy="159.962" r="3.3522" fill="#5B5B5B"/>
<circle cx="764.006" cy="193.484" r="3.3522" fill="#5B5B5B"/>
<circle cx="764.006" cy="227.006" r="3.3522" fill="#5B5B5B"/>
<circle cx="764.006" cy="260.528" r="3.3522" fill="#5B5B5B"/>
<circle cx="764.006" cy="294.05" r="3.3522" fill="#5B5B5B"/>
<circle cx="764.006" cy="327.572" r="3.3522" fill="#5B5B5B"/>
<circle cx="764.006" cy="361.094" r="3.3522" fill="#5B5B5B"/>
<circle cx="764.006" cy="394.616" r="3.3522" fill="#5B5B5B"/>
<circle cx="764.006" cy="428.138" r="3.3522" fill="#5B5B5B"/>
<circle cx="764.006" cy="461.66" r="3.3522" fill="#5B5B5B"/>
<circle cx="764.006" cy="495.182" r="3.3522" fill="#5B5B5B"/>
<circle cx="764.006" cy="528.704" r="3.3522" fill="#5B5B5B"/>
<circle cx="780.767" cy="25.8742" r="3.3522" fill="#5B5B5B"/>
<circle cx="780.767" cy="59.3961" r="3.3522" fill="#5B5B5B"/>
<circle cx="780.767" cy="92.9181" r="3.3522" fill="#5B5B5B"/>
<circle cx="780.767" cy="126.44" r="3.3522" fill="#5B5B5B"/>
<circle cx="780.767" cy="159.962" r="3.3522" fill="#5B5B5B"/>
<circle cx="780.767" cy="193.484" r="3.3522" fill="#5B5B5B"/>
<circle cx="780.767" cy="227.006" r="3.3522" fill="#5B5B5B"/>
<circle cx="780.767" cy="260.528" r="3.3522" fill="#5B5B5B"/>
<circle cx="780.767" cy="294.05" r="3.3522" fill="#5B5B5B"/>
<circle cx="780.767" cy="327.572" r="3.3522" fill="#5B5B5B"/>
<circle cx="780.767" cy="361.094" r="3.3522" fill="#5B5B5B"/>
<circle cx="780.767" cy="394.616" r="3.3522" fill="#5B5B5B"/>
<circle cx="780.767" cy="428.138" r="3.3522" fill="#5B5B5B"/>
<circle cx="780.767" cy="461.66" r="3.3522" fill="#5B5B5B"/>
<circle cx="780.767" cy="495.182" r="3.3522" fill="#5B5B5B"/>
<circle cx="780.767" cy="528.704" r="3.3522" fill="#5B5B5B"/>
<circle cx="534.38" cy="9.11319" r="3.3522" fill="#5B5B5B"/>
<circle cx="534.38" cy="42.6352" r="3.3522" fill="#5B5B5B"/>
<circle cx="534.38" cy="76.1571" r="3.3522" fill="#5B5B5B"/>
<circle cx="534.38" cy="109.679" r="3.3522" fill="#5B5B5B"/>
<circle cx="534.38" cy="143.201" r="3.3522" fill="#5B5B5B"/>
<circle cx="534.38" cy="176.723" r="3.3522" fill="#5B5B5B"/>
<circle cx="534.38" cy="210.245" r="3.3522" fill="#5B5B5B"/>
<circle cx="534.38" cy="243.767" r="3.3522" fill="#5B5B5B"/>
<circle cx="534.38" cy="277.289" r="3.3522" fill="#5B5B5B"/>
<circle cx="534.38" cy="310.811" r="3.3522" fill="#5B5B5B"/>
<circle cx="534.38" cy="344.333" r="3.3522" fill="#5B5B5B"/>
<circle cx="534.38" cy="377.855" r="3.3522" fill="#5B5B5B"/>
<circle cx="534.38" cy="411.377" r="3.3522" fill="#5B5B5B"/>
<circle cx="534.38" cy="444.899" r="3.3522" fill="#5B5B5B"/>
<circle cx="534.38" cy="478.421" r="3.3522" fill="#5B5B5B"/>
<circle cx="534.38" cy="511.944" r="3.3522" fill="#5B5B5B"/>
<circle cx="534.38" cy="545.465" r="3.3522" fill="#5B5B5B"/>
<circle cx="551.141" cy="9.11319" r="3.3522" fill="#5B5B5B"/>
<circle cx="551.141" cy="42.6352" r="3.3522" fill="#5B5B5B"/>
<circle cx="551.141" cy="76.1571" r="3.3522" fill="#5B5B5B"/>
<circle cx="551.141" cy="109.679" r="3.3522" fill="#5B5B5B"/>
<circle cx="551.141" cy="143.201" r="3.3522" fill="#5B5B5B"/>
<circle cx="551.141" cy="176.723" r="3.3522" fill="#5B5B5B"/>
<circle cx="551.141" cy="210.245" r="3.3522" fill="#5B5B5B"/>
<circle cx="551.141" cy="243.767" r="3.3522" fill="#5B5B5B"/>
<circle cx="551.141" cy="277.289" r="3.3522" fill="#5B5B5B"/>
<circle cx="551.141" cy="310.811" r="3.3522" fill="#5B5B5B"/>
<circle cx="551.141" cy="344.333" r="3.3522" fill="#5B5B5B"/>
<circle cx="551.141" cy="377.855" r="3.3522" fill="#5B5B5B"/>
<circle cx="551.141" cy="411.377" r="3.3522" fill="#5B5B5B"/>
<circle cx="551.141" cy="444.899" r="3.3522" fill="#5B5B5B"/>
<circle cx="551.141" cy="478.421" r="3.3522" fill="#5B5B5B"/>
<circle cx="551.141" cy="511.944" r="3.3522" fill="#5B5B5B"/>
<circle cx="551.141" cy="545.465" r="3.3522" fill="#5B5B5B"/>
<circle cx="567.902" cy="9.11319" r="3.3522" fill="#5B5B5B"/>
<circle cx="567.902" cy="42.6352" r="3.3522" fill="#5B5B5B"/>
<circle cx="567.902" cy="76.1571" r="3.3522" fill="#5B5B5B"/>
<circle cx="567.902" cy="109.679" r="3.3522" fill="#5B5B5B"/>
<circle cx="567.902" cy="143.201" r="3.3522" fill="#5B5B5B"/>
<circle cx="567.902" cy="176.723" r="3.3522" fill="#5B5B5B"/>
<circle cx="567.902" cy="210.245" r="3.3522" fill="#5B5B5B"/>
<circle cx="567.902" cy="243.767" r="3.3522" fill="#5B5B5B"/>
<circle cx="567.902" cy="277.289" r="3.3522" fill="#5B5B5B"/>
<circle cx="567.902" cy="310.811" r="3.3522" fill="#5B5B5B"/>
<circle cx="567.902" cy="344.333" r="3.3522" fill="#5B5B5B"/>
<circle cx="567.902" cy="377.855" r="3.3522" fill="#5B5B5B"/>
<circle cx="567.902" cy="411.377" r="3.3522" fill="#5B5B5B"/>
<circle cx="567.902" cy="444.899" r="3.3522" fill="#5B5B5B"/>
<circle cx="567.902" cy="478.421" r="3.3522" fill="#5B5B5B"/>
<circle cx="567.902" cy="511.944" r="3.3522" fill="#5B5B5B"/>
<circle cx="567.902" cy="545.465" r="3.3522" fill="#5B5B5B"/>
<circle cx="584.664" cy="9.11319" r="3.3522" fill="#5B5B5B"/>
<circle cx="584.664" cy="42.6352" r="3.3522" fill="#5B5B5B"/>
<circle cx="584.664" cy="76.1571" r="3.3522" fill="#5B5B5B"/>
<circle cx="584.664" cy="109.679" r="3.3522" fill="#5B5B5B"/>
<circle cx="584.664" cy="143.201" r="3.3522" fill="#5B5B5B"/>
<circle cx="584.664" cy="176.723" r="3.3522" fill="#5B5B5B"/>
<circle cx="584.664" cy="210.245" r="3.3522" fill="#5B5B5B"/>
<circle cx="584.664" cy="243.767" r="3.3522" fill="#5B5B5B"/>
<circle cx="584.664" cy="277.289" r="3.3522" fill="#5B5B5B"/>
<circle cx="584.664" cy="310.811" r="3.3522" fill="#5B5B5B"/>
<circle cx="584.664" cy="344.333" r="3.3522" fill="#5B5B5B"/>
<circle cx="584.664" cy="377.855" r="3.3522" fill="#5B5B5B"/>
<circle cx="584.664" cy="411.377" r="3.3522" fill="#5B5B5B"/>
<circle cx="584.664" cy="444.899" r="3.3522" fill="#5B5B5B"/>
<circle cx="584.664" cy="478.421" r="3.3522" fill="#5B5B5B"/>
<circle cx="584.664" cy="511.944" r="3.3522" fill="#5B5B5B"/>
<circle cx="584.664" cy="545.465" r="3.3522" fill="#5B5B5B"/>
<circle cx="601.424" cy="9.11319" r="3.3522" fill="#5B5B5B"/>
<circle cx="601.424" cy="42.6352" r="3.3522" fill="#5B5B5B"/>
<circle cx="601.424" cy="76.1571" r="3.3522" fill="#5B5B5B"/>
<circle cx="601.424" cy="109.679" r="3.3522" fill="#5B5B5B"/>
<circle cx="601.424" cy="143.201" r="3.3522" fill="#5B5B5B"/>
<circle cx="601.424" cy="176.723" r="3.3522" fill="#5B5B5B"/>
<circle cx="601.424" cy="210.245" r="3.3522" fill="#5B5B5B"/>
<circle cx="601.424" cy="243.767" r="3.3522" fill="#5B5B5B"/>
<circle cx="601.424" cy="277.289" r="3.3522" fill="#5B5B5B"/>
<circle cx="601.424" cy="310.811" r="3.3522" fill="#5B5B5B"/>
<circle cx="601.424" cy="344.333" r="3.3522" fill="#5B5B5B"/>
<circle cx="601.424" cy="377.855" r="3.3522" fill="#5B5B5B"/>
<circle cx="601.424" cy="411.377" r="3.3522" fill="#5B5B5B"/>
<circle cx="601.424" cy="444.899" r="3.3522" fill="#5B5B5B"/>
<circle cx="601.424" cy="478.421" r="3.3522" fill="#5B5B5B"/>
<circle cx="601.424" cy="511.944" r="3.3522" fill="#5B5B5B"/>
<circle cx="601.424" cy="545.465" r="3.3522" fill="#5B5B5B"/>
<circle cx="618.185" cy="9.11319" r="3.3522" fill="#5B5B5B"/>
<circle cx="618.185" cy="42.6352" r="3.3522" fill="#5B5B5B"/>
<circle cx="618.185" cy="76.1571" r="3.3522" fill="#5B5B5B"/>
<circle cx="618.185" cy="109.679" r="3.3522" fill="#5B5B5B"/>
<circle cx="618.185" cy="143.201" r="3.3522" fill="#5B5B5B"/>
<circle cx="618.185" cy="176.723" r="3.3522" fill="#5B5B5B"/>
<circle cx="618.185" cy="210.245" r="3.3522" fill="#5B5B5B"/>
<circle cx="618.185" cy="243.767" r="3.3522" fill="#5B5B5B"/>
<circle cx="618.185" cy="277.289" r="3.3522" fill="#5B5B5B"/>
<circle cx="618.185" cy="310.811" r="3.3522" fill="#5B5B5B"/>
<circle cx="618.185" cy="344.333" r="3.3522" fill="#5B5B5B"/>
<circle cx="618.185" cy="377.855" r="3.3522" fill="#5B5B5B"/>
<circle cx="618.185" cy="411.377" r="3.3522" fill="#5B5B5B"/>
<circle cx="618.185" cy="444.899" r="3.3522" fill="#5B5B5B"/>
<circle cx="618.185" cy="478.421" r="3.3522" fill="#5B5B5B"/>
<circle cx="618.185" cy="511.944" r="3.3522" fill="#5B5B5B"/>
<circle cx="618.185" cy="545.465" r="3.3522" fill="#5B5B5B"/>
<circle cx="634.947" cy="9.11319" r="3.3522" fill="#5B5B5B"/>
<circle cx="634.947" cy="42.6352" r="3.3522" fill="#5B5B5B"/>
<circle cx="634.947" cy="76.1571" r="3.3522" fill="#5B5B5B"/>
<circle cx="634.947" cy="109.679" r="3.3522" fill="#5B5B5B"/>
<circle cx="634.947" cy="143.201" r="3.3522" fill="#5B5B5B"/>
<circle cx="634.947" cy="176.723" r="3.3522" fill="#5B5B5B"/>
<circle cx="634.947" cy="210.245" r="3.3522" fill="#5B5B5B"/>
<circle cx="634.947" cy="243.767" r="3.3522" fill="#5B5B5B"/>
<circle cx="634.947" cy="277.289" r="3.3522" fill="#5B5B5B"/>
<circle cx="634.947" cy="310.811" r="3.3522" fill="#5B5B5B"/>
<circle cx="634.947" cy="344.333" r="3.3522" fill="#5B5B5B"/>
<circle cx="634.947" cy="377.855" r="3.3522" fill="#5B5B5B"/>
<circle cx="634.947" cy="411.377" r="3.3522" fill="#5B5B5B"/>
<circle cx="634.947" cy="444.899" r="3.3522" fill="#5B5B5B"/>
<circle cx="634.947" cy="478.421" r="3.3522" fill="#5B5B5B"/>
<circle cx="634.947" cy="511.944" r="3.3522" fill="#5B5B5B"/>
<circle cx="634.947" cy="545.465" r="3.3522" fill="#5B5B5B"/>
<circle cx="651.708" cy="9.11319" r="3.3522" fill="#5B5B5B"/>
<circle cx="651.708" cy="42.6352" r="3.3522" fill="#5B5B5B"/>
<circle cx="651.708" cy="76.1571" r="3.3522" fill="#5B5B5B"/>
<circle cx="651.708" cy="109.679" r="3.3522" fill="#5B5B5B"/>
<circle cx="651.708" cy="143.201" r="3.3522" fill="#5B5B5B"/>
<circle cx="651.708" cy="176.723" r="3.3522" fill="#5B5B5B"/>
<circle cx="651.708" cy="210.245" r="3.3522" fill="#5B5B5B"/>
<circle cx="651.708" cy="243.767" r="3.3522" fill="#5B5B5B"/>
<circle cx="651.708" cy="277.289" r="3.3522" fill="#5B5B5B"/>
<circle cx="651.708" cy="310.811" r="3.3522" fill="#5B5B5B"/>
<circle cx="651.708" cy="344.333" r="3.3522" fill="#5B5B5B"/>
<circle cx="651.708" cy="377.855" r="3.3522" fill="#5B5B5B"/>
<circle cx="651.708" cy="411.377" r="3.3522" fill="#5B5B5B"/>
<circle cx="651.708" cy="444.899" r="3.3522" fill="#5B5B5B"/>
<circle cx="651.708" cy="478.421" r="3.3522" fill="#5B5B5B"/>
<circle cx="651.708" cy="511.944" r="3.3522" fill="#5B5B5B"/>
<circle cx="651.708" cy="545.465" r="3.3522" fill="#5B5B5B"/>
<circle cx="668.469" cy="9.11319" r="3.3522" fill="#5B5B5B"/>
<circle cx="668.469" cy="42.6352" r="3.3522" fill="#5B5B5B"/>
<circle cx="668.469" cy="76.1571" r="3.3522" fill="#5B5B5B"/>
<circle cx="668.469" cy="109.679" r="3.3522" fill="#5B5B5B"/>
<circle cx="668.469" cy="143.201" r="3.3522" fill="#5B5B5B"/>
<circle cx="668.469" cy="176.723" r="3.3522" fill="#5B5B5B"/>
<circle cx="668.469" cy="210.245" r="3.3522" fill="#5B5B5B"/>
<circle cx="668.469" cy="243.767" r="3.3522" fill="#5B5B5B"/>
<circle cx="668.469" cy="277.289" r="3.3522" fill="#5B5B5B"/>
<circle cx="668.469" cy="310.811" r="3.3522" fill="#5B5B5B"/>
<circle cx="668.469" cy="344.333" r="3.3522" fill="#5B5B5B"/>
<circle cx="668.469" cy="377.855" r="3.3522" fill="#5B5B5B"/>
<circle cx="668.469" cy="411.377" r="3.3522" fill="#5B5B5B"/>
<circle cx="668.469" cy="444.899" r="3.3522" fill="#5B5B5B"/>
<circle cx="668.469" cy="478.421" r="3.3522" fill="#5B5B5B"/>
<circle cx="668.469" cy="511.944" r="3.3522" fill="#5B5B5B"/>
<circle cx="668.469" cy="545.465" r="3.3522" fill="#5B5B5B"/>
<circle cx="685.229" cy="9.11319" r="3.3522" fill="#5B5B5B"/>
<circle cx="685.229" cy="42.6352" r="3.3522" fill="#5B5B5B"/>
<circle cx="685.229" cy="76.1571" r="3.3522" fill="#5B5B5B"/>
<circle cx="685.229" cy="109.679" r="3.3522" fill="#5B5B5B"/>
<circle cx="685.229" cy="143.201" r="3.3522" fill="#5B5B5B"/>
<circle cx="685.229" cy="176.723" r="3.3522" fill="#5B5B5B"/>
<circle cx="685.229" cy="210.245" r="3.3522" fill="#5B5B5B"/>
<circle cx="685.229" cy="243.767" r="3.3522" fill="#5B5B5B"/>
<circle cx="685.229" cy="277.289" r="3.3522" fill="#5B5B5B"/>
<circle cx="685.229" cy="310.811" r="3.3522" fill="#5B5B5B"/>
<circle cx="685.229" cy="344.333" r="3.3522" fill="#5B5B5B"/>
<circle cx="685.229" cy="377.855" r="3.3522" fill="#5B5B5B"/>
<circle cx="685.229" cy="411.377" r="3.3522" fill="#5B5B5B"/>
<circle cx="685.229" cy="444.899" r="3.3522" fill="#5B5B5B"/>
<circle cx="685.229" cy="478.421" r="3.3522" fill="#5B5B5B"/>
<circle cx="685.229" cy="511.944" r="3.3522" fill="#5B5B5B"/>
<circle cx="685.229" cy="545.465" r="3.3522" fill="#5B5B5B"/>
<circle cx="701.991" cy="9.11319" r="3.3522" fill="#5B5B5B"/>
<circle cx="701.991" cy="42.6352" r="3.3522" fill="#5B5B5B"/>
<circle cx="701.991" cy="76.1571" r="3.3522" fill="#5B5B5B"/>
<circle cx="701.991" cy="109.679" r="3.3522" fill="#5B5B5B"/>
<circle cx="701.991" cy="143.201" r="3.3522" fill="#5B5B5B"/>
<circle cx="701.991" cy="176.723" r="3.3522" fill="#5B5B5B"/>
<circle cx="701.991" cy="210.245" r="3.3522" fill="#5B5B5B"/>
<circle cx="701.991" cy="243.767" r="3.3522" fill="#5B5B5B"/>
<circle cx="701.991" cy="277.289" r="3.3522" fill="#5B5B5B"/>
<circle cx="701.991" cy="310.811" r="3.3522" fill="#5B5B5B"/>
<circle cx="701.991" cy="344.333" r="3.3522" fill="#5B5B5B"/>
<circle cx="701.991" cy="377.855" r="3.3522" fill="#5B5B5B"/>
<circle cx="701.991" cy="411.377" r="3.3522" fill="#5B5B5B"/>
<circle cx="701.991" cy="444.899" r="3.3522" fill="#5B5B5B"/>
<circle cx="701.991" cy="478.421" r="3.3522" fill="#5B5B5B"/>
<circle cx="701.991" cy="511.944" r="3.3522" fill="#5B5B5B"/>
<circle cx="701.991" cy="545.465" r="3.3522" fill="#5B5B5B"/>
<circle cx="718.752" cy="9.11319" r="3.3522" fill="#5B5B5B"/>
<circle cx="718.752" cy="42.6352" r="3.3522" fill="#5B5B5B"/>
<circle cx="718.752" cy="76.1571" r="3.3522" fill="#5B5B5B"/>
<circle cx="718.752" cy="109.679" r="3.3522" fill="#5B5B5B"/>
<circle cx="718.752" cy="143.201" r="3.3522" fill="#5B5B5B"/>
<circle cx="718.752" cy="176.723" r="3.3522" fill="#5B5B5B"/>
<circle cx="718.752" cy="210.245" r="3.3522" fill="#5B5B5B"/>
<circle cx="718.752" cy="243.767" r="3.3522" fill="#5B5B5B"/>
<circle cx="718.752" cy="277.289" r="3.3522" fill="#5B5B5B"/>
<circle cx="718.752" cy="310.811" r="3.3522" fill="#5B5B5B"/>
<circle cx="718.752" cy="344.333" r="3.3522" fill="#5B5B5B"/>
<circle cx="718.752" cy="377.855" r="3.3522" fill="#5B5B5B"/>
<circle cx="718.752" cy="411.377" r="3.3522" fill="#5B5B5B"/>
<circle cx="718.752" cy="444.899" r="3.3522" fill="#5B5B5B"/>
<circle cx="718.752" cy="478.421" r="3.3522" fill="#5B5B5B"/>
<circle cx="718.752" cy="511.944" r="3.3522" fill="#5B5B5B"/>
<circle cx="718.752" cy="545.465" r="3.3522" fill="#5B5B5B"/>
<circle cx="735.513" cy="9.11319" r="3.3522" fill="#5B5B5B"/>
<circle cx="735.513" cy="42.6352" r="3.3522" fill="#5B5B5B"/>
<circle cx="735.513" cy="76.1571" r="3.3522" fill="#5B5B5B"/>
<circle cx="735.513" cy="109.679" r="3.3522" fill="#5B5B5B"/>
<circle cx="735.513" cy="143.201" r="3.3522" fill="#5B5B5B"/>
<circle cx="735.513" cy="176.723" r="3.3522" fill="#5B5B5B"/>
<circle cx="735.513" cy="210.245" r="3.3522" fill="#5B5B5B"/>
<circle cx="735.513" cy="243.767" r="3.3522" fill="#5B5B5B"/>
<circle cx="735.513" cy="277.289" r="3.3522" fill="#5B5B5B"/>
<circle cx="735.513" cy="310.811" r="3.3522" fill="#5B5B5B"/>
<circle cx="735.513" cy="344.333" r="3.3522" fill="#5B5B5B"/>
<circle cx="735.513" cy="377.855" r="3.3522" fill="#5B5B5B"/>
<circle cx="735.513" cy="411.377" r="3.3522" fill="#5B5B5B"/>
<circle cx="735.513" cy="444.899" r="3.3522" fill="#5B5B5B"/>
<circle cx="735.513" cy="478.421" r="3.3522" fill="#5B5B5B"/>
<circle cx="735.513" cy="511.944" r="3.3522" fill="#5B5B5B"/>
<circle cx="735.513" cy="545.465" r="3.3522" fill="#5B5B5B"/>
<circle cx="752.274" cy="9.11319" r="3.3522" fill="#5B5B5B"/>
<circle cx="752.274" cy="42.6352" r="3.3522" fill="#5B5B5B"/>
<circle cx="752.274" cy="76.1571" r="3.3522" fill="#5B5B5B"/>
<circle cx="752.274" cy="109.679" r="3.3522" fill="#5B5B5B"/>
<circle cx="752.274" cy="143.201" r="3.3522" fill="#5B5B5B"/>
<circle cx="752.274" cy="176.723" r="3.3522" fill="#5B5B5B"/>
<circle cx="752.274" cy="210.245" r="3.3522" fill="#5B5B5B"/>
<circle cx="752.274" cy="243.767" r="3.3522" fill="#5B5B5B"/>
<circle cx="752.274" cy="277.289" r="3.3522" fill="#5B5B5B"/>
<circle cx="752.274" cy="310.811" r="3.3522" fill="#5B5B5B"/>
<circle cx="752.274" cy="344.333" r="3.3522" fill="#5B5B5B"/>
<circle cx="752.274" cy="377.855" r="3.3522" fill="#5B5B5B"/>
<circle cx="752.274" cy="411.377" r="3.3522" fill="#5B5B5B"/>
<circle cx="752.274" cy="444.899" r="3.3522" fill="#5B5B5B"/>
<circle cx="752.274" cy="478.421" r="3.3522" fill="#5B5B5B"/>
<circle cx="752.274" cy="511.944" r="3.3522" fill="#5B5B5B"/>
<circle cx="752.274" cy="545.465" r="3.3522" fill="#5B5B5B"/>
<circle cx="769.035" cy="9.11319" r="3.3522" fill="#5B5B5B"/>
<circle cx="769.035" cy="42.6352" r="3.3522" fill="#5B5B5B"/>
<circle cx="769.035" cy="76.1571" r="3.3522" fill="#5B5B5B"/>
<circle cx="769.035" cy="109.679" r="3.3522" fill="#5B5B5B"/>
<circle cx="769.035" cy="143.201" r="3.3522" fill="#5B5B5B"/>
<circle cx="769.035" cy="176.723" r="3.3522" fill="#5B5B5B"/>
<circle cx="769.035" cy="210.245" r="3.3522" fill="#5B5B5B"/>
<circle cx="769.035" cy="243.767" r="3.3522" fill="#5B5B5B"/>
<circle cx="769.035" cy="277.289" r="3.3522" fill="#5B5B5B"/>
<circle cx="769.035" cy="310.811" r="3.3522" fill="#5B5B5B"/>
<circle cx="769.035" cy="344.333" r="3.3522" fill="#5B5B5B"/>
<circle cx="769.035" cy="377.855" r="3.3522" fill="#5B5B5B"/>
<circle cx="769.035" cy="411.377" r="3.3522" fill="#5B5B5B"/>
<circle cx="769.035" cy="444.899" r="3.3522" fill="#5B5B5B"/>
<circle cx="769.035" cy="478.421" r="3.3522" fill="#5B5B5B"/>
<circle cx="769.035" cy="511.944" r="3.3522" fill="#5B5B5B"/>
<circle cx="769.035" cy="545.465" r="3.3522" fill="#5B5B5B"/>
<circle cx="785.796" cy="9.11319" r="3.3522" fill="#5B5B5B"/>
<circle cx="785.796" cy="42.6352" r="3.3522" fill="#5B5B5B"/>
<circle cx="785.796" cy="76.1571" r="3.3522" fill="#5B5B5B"/>
<circle cx="785.796" cy="109.679" r="3.3522" fill="#5B5B5B"/>
<circle cx="785.796" cy="143.201" r="3.3522" fill="#5B5B5B"/>
<circle cx="785.796" cy="176.723" r="3.3522" fill="#5B5B5B"/>
<circle cx="785.796" cy="210.245" r="3.3522" fill="#5B5B5B"/>
<circle cx="785.796" cy="243.767" r="3.3522" fill="#5B5B5B"/>
<circle cx="785.796" cy="277.289" r="3.3522" fill="#5B5B5B"/>
<circle cx="785.796" cy="310.811" r="3.3522" fill="#5B5B5B"/>
<circle cx="785.796" cy="344.333" r="3.3522" fill="#5B5B5B"/>
<circle cx="785.796" cy="377.855" r="3.3522" fill="#5B5B5B"/>
<circle cx="785.796" cy="411.377" r="3.3522" fill="#5B5B5B"/>
<circle cx="785.796" cy="444.899" r="3.3522" fill="#5B5B5B"/>
<circle cx="785.796" cy="478.421" r="3.3522" fill="#5B5B5B"/>
<circle cx="785.796" cy="511.944" r="3.3522" fill="#5B5B5B"/>
<circle cx="785.796" cy="545.465" r="3.3522" fill="#5B5B5B"/>
</g>
</svg>
